{
  "exports": {
    "AddIPAddress": {
      "args": [
        [
          "IPAddr",
          "Address"
        ],
        [
          "IPMask",
          "IpMask"
        ],
        [
          "DWORD",
          "IfIndex"
        ],
        [
          "PULONG",
          "NTEContext"
        ],
        [
          "PULONG",
          "NTEInstance"
        ]
      ],
      "call": "std"
    },
    "AllocateAndGetInterfaceInfoFromStack": {
      "args": [
        [
          "DWORD",
          "arg0"
        ],
        [
          "DWORD",
          "arg1"
        ],
        [
          "DWORD",
          "arg2"
        ],
        [
          "DWORD",
          "arg3"
        ],
        [
          "DWORD",
          "arg4"
        ]
      ],
      "call": "std"
    },
    "AllocateAndGetIpAddrTableFromStack": {
      "args": [
        [
          "DWORD",
          "arg0"
        ],
        [
          "DWORD",
          "arg1"
        ],
        [
          "DWORD",
          "arg2"
        ],
        [
          "DWORD",
          "arg3"
        ]
      ],
      "call": "std"
    },
    "CancelIPChangeNotify": {
      "args": [
        [
          "LPOVERLAPPED",
          "notifyOverlapped"
        ]
      ],
      "call": "std"
    },
    "CancelMibChangeNotify2": {
      "args": [
        [
          "DWORD",
          "arg0"
        ]
      ],
      "call": "std"
    },
    "CloseGetIPPhysicalInterfaceForDestination": {
      "args": [
        [
          "DWORD",
          "arg0"
        ]
      ],
      "call": "std"
    },
    "ConvertCompartmentGuidToId": {
      "args": [
        [
          "DWORD",
          "arg0"
        ],
        [
          "DWORD",
          "arg1"
        ]
      ],
      "call": "std"
    },
    "ConvertCompartmentIdToGuid": {
      "args": [
        [
          "DWORD",
          "arg0"
        ],
        [
          "DWORD",
          "arg1"
        ]
      ],
      "call": "std"
    },
    "ConvertGuidToStringA": {
      "args": [
        [
          "DWORD",
          "arg0"
        ],
        [
          "DWORD",
          "arg1"
        ],
        [
          "DWORD",
          "arg2"
        ]
      ],
      "call": "std"
    },
    "ConvertGuidToStringW": {
      "args": [
        [
          "DWORD",
          "arg0"
        ],
        [
          "DWORD",
          "arg1"
        ],
        [
          "DWORD",
          "arg2"
        ]
      ],
      "call": "std"
    },
    "ConvertInterfaceAliasToLuid": {
      "args": [
        [
          "DWORD",
          "arg0"
        ],
        [
          "DWORD",
          "arg1"
        ]
      ],
      "call": "std"
    },
    "ConvertInterfaceGuidToLuid": {
      "args": [
        [
          "DWORD",
          "arg0"
        ],
        [
          "DWORD",
          "arg1"
        ]
      ],
      "call": "std"
    },
    "ConvertInterfaceIndexToLuid": {
      "args": [
        [
          "DWORD",
          "arg0"
        ],
        [
          "DWORD",
          "arg1"
        ]
      ],
      "call": "std"
    },
    "ConvertInterfaceLuidToAlias": {
      "args": [
        [
          "DWORD",
          "arg0"
        ],
        [
          "DWORD",
          "arg1"
        ],
        [
          "DWORD",
          "arg2"
        ]
      ],
      "call": "std"
    },
    "ConvertInterfaceLuidToGuid": {
      "args": [
        [
          "DWORD",
          "arg0"
        ],
        [
          "DWORD",
          "arg1"
        ]
      ],
      "call": "std"
    },
    "ConvertInterfaceLuidToIndex": {
      "args": [
        [
          "DWORD",
          "arg0"
        ],
        [
          "DWORD",
          "arg1"
        ]
      ],
      "call": "std"
    },
    "ConvertInterfaceLuidToNameA": {
      "args": [
        [
          "DWORD",
          "arg0"
        ],
        [
          "DWORD",
          "arg1"
        ],
        [
          "DWORD",
          "arg2"
        ]
      ],
      "call": "std"
    },
    "ConvertInterfaceLuidToNameW": {
      "args": [
        [
          "DWORD",
          "arg0"
        ],
        [
          "DWORD",
          "arg1"
        ],
        [
          "DWORD",
          "arg2"
        ]
      ],
      "call": "std"
    },
    "ConvertInterfaceNameToLuidA": {
      "args": [
        [
          "DWORD",
          "arg0"
        ],
        [
          "DWORD",
          "arg1"
        ]
      ],
      "call": "std"
    },
    "ConvertInterfaceNameToLuidW": {
      "args": [
        [
          "DWORD",
          "arg0"
        ],
        [
          "DWORD",
          "arg1"
        ]
      ],
      "call": "std"
    },
    "ConvertInterfacePhysicalAddressToLuid": {
      "args": [
        [
          "DWORD",
          "arg0"
        ],
        [
          "DWORD",
          "arg1"
        ],
        [
          "DWORD",
          "arg2"
        ]
      ],
      "call": "std"
    },
    "ConvertIpv4MaskToLength": {
      "args": [
        [
          "DWORD",
          "arg0"
        ],
        [
          "DWORD",
          "arg1"
        ]
      ],
      "call": "std"
    },
    "ConvertLengthToIpv4Mask": {
      "args": [
        [
          "DWORD",
          "arg0"
        ],
        [
          "DWORD",
          "arg1"
        ]
      ],
      "call": "std"
    },
    "ConvertRemoteInterfaceAliasToLuid": {
      "args": [
        [
          "DWORD",
          "arg0"
        ],
        [
          "DWORD",
          "arg1"
        ],
        [
          "DWORD",
          "arg2"
        ]
      ],
      "call": "std"
    },
    "ConvertRemoteInterfaceGuidToLuid": {
      "args": [
        [
          "DWORD",
          "arg0"
        ],
        [
          "DWORD",
          "arg1"
        ],
        [
          "DWORD",
          "arg2"
        ]
      ],
      "call": "std"
    },
    "ConvertRemoteInterfaceIndexToLuid": {
      "args": [
        [
          "DWORD",
          "arg0"
        ],
        [
          "DWORD",
          "arg1"
        ],
        [
          "DWORD",
          "arg2"
        ]
      ],
      "call": "std"
    },
    "ConvertRemoteInterfaceLuidToAlias": {
      "args": [
        [
          "DWORD",
          "arg0"
        ],
        [
          "DWORD",
          "arg1"
        ],
        [
          "DWORD",
          "arg2"
        ],
        [
          "DWORD",
          "arg3"
        ]
      ],
      "call": "std"
    },
    "ConvertRemoteInterfaceLuidToGuid": {
      "args": [
        [
          "DWORD",
          "arg0"
        ],
        [
          "DWORD",
          "arg1"
        ],
        [
          "DWORD",
          "arg2"
        ]
      ],
      "call": "std"
    },
    "ConvertRemoteInterfaceLuidToIndex": {
      "args": [
        [
          "DWORD",
          "arg0"
        ],
        [
          "DWORD",
          "arg1"
        ],
        [
          "DWORD",
          "arg2"
        ]
      ],
      "call": "std"
    },
    "ConvertStringToGuidA": {
      "args": [
        [
          "DWORD",
          "arg0"
        ],
        [
          "DWORD",
          "arg1"
        ]
      ],
      "call": "std"
    },
    "ConvertStringToGuidW": {
      "args": [
        [
          "DWORD",
          "arg0"
        ],
        [
          "DWORD",
          "arg1"
        ]
      ],
      "call": "std"
    },
    "ConvertStringToInterfacePhysicalAddress": {
      "args": [
        [
          "DWORD",
          "arg0"
        ],
        [
          "DWORD",
          "arg1"
        ]
      ],
      "call": "std"
    },
    "CreateAnycastIpAddressEntry": {
      "args": [
        [
          "DWORD",
          "arg0"
        ]
      ],
      "call": "std"
    },
    "CreateCompartment": {
      "args": [
        [
          "DWORD",
          "arg0"
        ]
      ],
      "call": "std"
    },
    "CreateIpForwardEntry": {
      "args": [
        [
          "PMIB_IPFORWARDROW",
          "pRoute"
        ]
      ],
      "call": "std"
    },
    "CreateIpForwardEntry2": {
      "args": [
        [
          "DWORD",
          "arg0"
        ]
      ],
      "call": "std"
    },
    "CreateIpNetEntry": {
      "args": [
        [
          "PMIB_IPNETROW",
          "pArpEntry"
        ]
      ],
      "call": "std"
    },
    "CreateIpNetEntry2": {
      "args": [
        [
          "DWORD",
          "arg0"
        ]
      ],
      "call": "std"
    },
    "CreatePersistentTcpPortReservation": {
      "args": [
        [
          "USHORT",
          "StartPort"
        ],
        [
          "USHORT",
          "NumberOfPorts"
        ],
        [
          "PULONG64",
          "Token"
        ]
      ],
      "call": "std"
    },
    "CreatePersistentUdpPortReservation": {
      "args": [
        [
          "USHORT",
          "StartPort"
        ],
        [
          "USHORT",
          "NumberOfPorts"
        ],
        [
          "PULONG64",
          "Token"
        ]
      ],
      "call": "std"
    },
    "CreateProxyArpEntry": {
      "args": [
        [
          "DWORD",
          "dwAddress"
        ],
        [
          "DWORD",
          "dwMask"
        ],
        [
          "DWORD",
          "dwIfIndex"
        ]
      ],
      "call": "std"
    },
    "CreateSortedAddressPairs": {
      "args": [
        [
          "DWORD",
          "arg0"
        ],
        [
          "DWORD",
          "arg1"
        ],
        [
          "DWORD",
          "arg2"
        ],
        [
          "DWORD",
          "arg3"
        ],
        [
          "DWORD",
          "arg4"
        ],
        [
          "DWORD",
          "arg5"
        ],
        [
          "DWORD",
          "arg6"
        ]
      ],
      "call": "std"
    },
    "CreateUnicastIpAddressEntry": {
      "args": [
        [
          "DWORD",
          "arg0"
        ]
      ],
      "call": "std"
    },
    "DeleteAnycastIpAddressEntry": {
      "args": [
        [
          "DWORD",
          "arg0"
        ]
      ],
      "call": "std"
    },
    "DeleteCompartment": {
      "args": [
        [
          "DWORD",
          "arg0"
        ]
      ],
      "call": "std"
    },
    "DeleteIPAddress": {
      "args": [
        [
          "ULONG",
          "NTEContext"
        ]
      ],
      "call": "std"
    },
    "DeleteIpForwardEntry": {
      "args": [
        [
          "PMIB_IPFORWARDROW",
          "pRoute"
        ]
      ],
      "call": "std"
    },
    "DeleteIpForwardEntry2": {
      "args": [
        [
          "DWORD",
          "arg0"
        ]
      ],
      "call": "std"
    },
    "DeleteIpNetEntry": {
      "args": [
        [
          "PMIB_IPNETROW",
          "pArpEntry"
        ]
      ],
      "call": "std"
    },
    "DeleteIpNetEntry2": {
      "args": [
        [
          "DWORD",
          "arg0"
        ]
      ],
      "call": "std"
    },
    "DeletePersistentTcpPortReservation": {
      "args": [
        [
          "USHORT",
          "StartPort"
        ],
        [
          "USHORT",
          "NumberOfPorts"
        ]
      ],
      "call": "std"
    },
    "DeletePersistentUdpPortReservation": {
      "args": [
        [
          "USHORT",
          "StartPort"
        ],
        [
          "USHORT",
          "NumberOfPorts"
        ]
      ],
      "call": "std"
    },
    "DeleteProxyArpEntry": {
      "args": [
        [
          "DWORD",
          "dwAddress"
        ],
        [
          "DWORD",
          "dwMask"
        ],
        [
          "DWORD",
          "dwIfIndex"
        ]
      ],
      "call": "std"
    },
    "DeleteUnicastIpAddressEntry": {
      "args": [
        [
          "DWORD",
          "arg0"
        ]
      ],
      "call": "std"
    },
    "DisableMediaSense": {
      "args": [
        [
          "HANDLE*",
          "pHandle"
        ],
        [
          "OVERLAPPED*",
          "pOverLapped"
        ]
      ],
      "call": "std"
    },
    "EnableRouter": {
      "args": [
        [
          "HANDLE*",
          "pHandle"
        ],
        [
          "OVERLAPPED*",
          "pOverlapped"
        ]
      ],
      "call": "std"
    },
    "FlushIpNetTable": {
      "args": [
        [
          "DWORD",
          "dwIfIndex"
        ]
      ],
      "call": "std"
    },
    "FlushIpNetTable2": {
      "args": [
        [
          "DWORD",
          "arg0"
        ],
        [
          "DWORD",
          "arg1"
        ]
      ],
      "call": "std"
    },
    "FlushIpPathTable": {
      "args": [
        [
          "DWORD",
          "arg0"
        ]
      ],
      "call": "std"
    },
    "FreeMibTable": {
      "args": [
        [
          "DWORD",
          "arg0"
        ]
      ],
      "call": "std"
    },
    "GetAdapterIndex": {
      "args": [
        [
          "LPWSTR",
          "AdapterName"
        ],
        [
          "PULONG",
          "IfIndex"
        ]
      ],
      "call": "std"
    },
    "GetAdapterOrderMap": {
      "args": [],
      "call": "std"
    },
    "GetAdaptersAddresses": {
      "args": [
        [
          "ULONG",
          "Family"
        ],
        [
          "ULONG",
          "Flags"
        ],
        [
          "PVOID",
          "Reserved"
        ],
        [
          "PIP_ADAPTER_ADDRESSES",
          "AdapterAddresses"
        ],
        [
          "PULONG",
          "SizePointer"
        ]
      ],
      "call": "std"
    },
    "GetAdaptersInfo": {
      "args": [
        [
          "PIP_ADAPTER_INFO",
          "AdapterInfo"
        ],
        [
          "PULONG",
          "SizePointer"
        ]
      ],
      "call": "std"
    },
    "GetAnycastIpAddressEntry": {
      "args": [
        [
          "DWORD",
          "arg0"
        ],
        [
          "DWORD",
          "arg1"
        ]
      ],
      "call": "std"
    },
    "GetAnycastIpAddressTable": {
      "args": [
        [
          "DWORD",
          "arg0"
        ],
        [
          "DWORD",
          "arg1"
        ]
      ],
      "call": "std"
    },
    "GetBestInterface": {
      "args": [
        [
          "IPAddr",
          "dwDestAddr"
        ],
        [
          "PDWORD",
          "pdwBestIfIndex"
        ]
      ],
      "call": "std"
    },
    "GetBestInterfaceEx": {
      "args": [
        [
          "sockaddr*",
          "pDestAddr"
        ],
        [
          "PDWORD",
          "pdwBestIfIndex"
        ]
      ],
      "call": "std"
    },
    "GetBestRoute": {
      "args": [
        [
          "DWORD",
          "dwDestAddr"
        ],
        [
          "DWORD",
          "dwSourceAddr"
        ],
        [
          "PMIB_IPFORWARDROW",
          "pBestRoute"
        ]
      ],
      "call": "std"
    },
    "GetBestRoute2": {
      "args": [
        [
          "DWORD",
          "arg0"
        ],
        [
          "DWORD",
          "arg1"
        ],
        [
          "DWORD",
          "arg2"
        ],
        [
          "DWORD",
          "arg3"
        ],
        [
          "DWORD",
          "arg4"
        ],
        [
          "DWORD",
          "arg5"
        ],
        [
          "DWORD",
          "arg6"
        ]
      ],
      "call": "std"
    },
    "GetCurrentThreadCompartmentId": {
      "args": [],
      "call": "std"
    },
    "GetCurrentThreadCompartmentScope": {
      "args": [
        [
          "DWORD",
          "arg0"
        ],
        [
          "DWORD",
          "arg1"
        ]
      ],
      "call": "std"
    },
    "GetDefaultCompartmentId": {
      "args": [],
      "call": "std"
    },
    "GetExtendedTcpTable": {
      "args": [
        [
          "PVOID",
          "pTcpTable"
        ],
        [
          "PDWORD",
          "pdwSize"
        ],
        [
          "BOOL",
          "bOrder"
        ],
        [
          "ULONG",
          "ulAf"
        ],
        [
          "TCP_TABLE_CLASS",
          "TableClass"
        ],
        [
          "ULONG",
          "Reserved"
        ]
      ],
      "call": "std"
    },
    "GetExtendedUdpTable": {
      "args": [
        [
          "PVOID",
          "pUdpTable"
        ],
        [
          "PDWORD",
          "pdwSize"
        ],
        [
          "BOOL",
          "bOrder"
        ],
        [
          "ULONG",
          "ulAf"
        ],
        [
          "UDP_TABLE_CLASS",
          "TableClass"
        ],
        [
          "ULONG",
          "Reserved"
        ]
      ],
      "call": "std"
    },
    "GetFriendlyIfIndex": {
      "args": [
        [
          "DWORD",
          "IfIndex"
        ]
      ],
      "call": "std"
    },
    "GetIcmpStatistics": {
      "args": [
        [
          "PMIB_ICMP",
          "Statistics"
        ]
      ],
      "call": "std"
    },
    "GetIcmpStatisticsEx": {
      "args": [
        [
          "PMIB_ICMP_EX",
          "Statistics"
        ],
        [
          "ULONG",
          "Family"
        ]
      ],
      "call": "std"
    },
    "GetIfEntry": {
      "args": [
        [
          "PMIB_IFROW",
          "pIfRow"
        ]
      ],
      "call": "std"
    },
    "GetIfEntry2": {
      "args": [
        [
          "DWORD",
          "arg0"
        ]
      ],
      "call": "std"
    },
    "GetIfEntry2Ex": {
      "args": [
        [
          "DWORD",
          "arg0"
        ],
        [
          "DWORD",
          "arg1"
        ]
      ],
      "call": "std"
    },
    "GetIfStackTable": {
      "args": [
        [
          "DWORD",
          "arg0"
        ]
      ],
      "call": "std"
    },
    "GetIfTable": {
      "args": [
        [
          "PMIB_IFTABLE",
          "pIfTable"
        ],
        [
          "PULONG",
          "pdwSize"
        ],
        [
          "BOOL",
          "bOrder"
        ]
      ],
      "call": "std"
    },
    "GetIfTable2": {
      "args": [
        [
          "DWORD",
          "arg0"
        ],
        [
          "DWORD",
          "arg1"
        ],
        [
          "DWORD",
          "arg2"
        ],
        [
          "DWORD",
          "arg3"
        ],
        [
          "DWORD",
          "arg4"
        ]
      ],
      "call": "std"
    },
    "GetIfTable2Ex": {
      "args": [
        [
          "DWORD",
          "arg0"
        ],
        [
          "DWORD",
          "arg1"
        ]
      ],
      "call": "std"
    },
    "GetInterfaceCompartmentId": {
      "args": [
        [
          "DWORD",
          "arg0"
        ]
      ],
      "call": "std"
    },
    "GetInterfaceInfo": {
      "args": [
        [
          "PIP_INTERFACE_INFO",
          "pIfTable"
        ],
        [
          "PULONG",
          "dwOutBufLen"
        ]
      ],
      "call": "std"
    },
    "GetInvertedIfStackTable": {
      "args": [
        [
          "DWORD",
          "arg0"
        ],
        [
          "DWORD",
          "arg1"
        ],
        [
          "DWORD",
          "arg2"
        ]
      ],
      "call": "std"
    },
    "GetIpAddrTable": {
      "args": [
        [
          "PMIB_IPADDRTABLE",
          "pIpAddrTable"
        ],
        [
          "PULONG",
          "pdwSize"
        ],
        [
          "BOOL",
          "bOrder"
        ]
      ],
      "call": "std"
    },
    "GetIpErrorString": {
      "args": [
        [
          "IP_STATUS",
          "ErrorCode"
        ],
        [
          "PWSTR",
          "Buffer"
        ],
        [
          "PDWORD",
          "Size"
        ]
      ],
      "call": "std"
    },
    "GetIpForwardEntry2": {
      "args": [
        [
          "DWORD",
          "arg0"
        ]
      ],
      "call": "std"
    },
    "GetIpForwardTable": {
      "args": [
        [
          "PMIB_IPFORWARDTABLE",
          "pIpForwardTable"
        ],
        [
          "PULONG",
          "pdwSize"
        ],
        [
          "BOOL",
          "bOrder"
        ]
      ],
      "call": "std"
    },
    "GetIpForwardTable2": {
      "args": [
        [
          "DWORD",
          "arg0"
        ],
        [
          "DWORD",
          "arg1"
        ]
      ],
      "call": "std"
    },
    "GetIpInterfaceEntry": {
      "args": [
        [
          "DWORD",
          "arg0"
        ]
      ],
      "call": "std"
    },
    "GetIpInterfaceTable": {
      "args": [
        [
          "DWORD",
          "arg0"
        ],
        [
          "DWORD",
          "arg1"
        ]
      ],
      "call": "std"
    },
    "GetIpNetEntry2": {
      "args": [
        [
          "DWORD",
          "arg0"
        ]
      ],
      "call": "std"
    },
    "GetIpNetTable": {
      "args": [
        [
          "PMIB_IPNETTABLE",
          "IpNetTable"
        ],
        [
          "PULONG",
          "SizePointer"
        ],
        [
          "BOOL",
          "Order"
        ]
      ],
      "call": "std"
    },
    "GetIpNetTable2": {
      "args": [
        [
          "DWORD",
          "arg0"
        ],
        [
          "DWORD",
          "arg1"
        ]
      ],
      "call": "std"
    },
    "GetIpNetworkConnectionBandwidthEstimates": {
      "args": [
        [
          "DWORD",
          "arg0"
        ],
        [
          "DWORD",
          "arg1"
        ],
        [
          "DWORD",
          "arg2"
        ]
      ],
      "call": "std"
    },
    "GetIpPathEntry": {
      "args": [
        [
          "DWORD",
          "arg0"
        ]
      ],
      "call": "std"
    },
    "GetIpPathTable": {
      "args": [
        [
          "DWORD",
          "arg0"
        ],
        [
          "DWORD",
          "arg1"
        ]
      ],
      "call": "std"
    },
    "GetIpStatistics": {
      "args": [
        [
          "PMIB_IPSTATS",
          "Statistics"
        ]
      ],
      "call": "std"
    },
    "GetIpStatisticsEx": {
      "args": [
        [
          "PMIB_IPSTATS",
          "Statistics"
        ],
        [
          "ULONG",
          "Family"
        ]
      ],
      "call": "std"
    },
    "GetJobCompartmentId": {
      "args": [
        [
          "DWORD",
          "arg0"
        ]
      ],
      "call": "std"
    },
    "GetMulticastIpAddressEntry": {
      "args": [
        [
          "DWORD",
          "arg0"
        ],
        [
          "DWORD",
          "arg1"
        ]
      ],
      "call": "std"
    },
    "GetMulticastIpAddressTable": {
      "args": [
        [
          "DWORD",
          "arg0"
        ],
        [
          "DWORD",
          "arg1"
        ]
      ],
      "call": "std"
    },
    "GetNetworkInformation": {
      "args": [
        [
          "DWORD",
          "arg0"
        ],
        [
          "DWORD",
          "arg1"
        ],
        [
          "DWORD",
          "arg2"
        ],
        [
          "DWORD",
          "arg3"
        ],
        [
          "DWORD",
          "arg4"
        ]
      ],
      "call": "std"
    },
    "GetNetworkParams": {
      "args": [
        [
          "PFIXED_INFO",
          "pFixedInfo"
        ],
        [
          "PULONG",
          "pOutBufLen"
        ]
      ],
      "call": "std"
    },
    "GetNumberOfInterfaces": {
      "args": [
        [
          "PDWORD",
          "pdwNumIf"
        ]
      ],
      "call": "std"
    },
    "GetOwnerModuleFromPidAndInfo": {
      "args": [
        [
          "DWORD",
          "arg0"
        ],
        [
          "DWORD",
          "arg1"
        ],
        [
          "DWORD",
          "arg2"
        ],
        [
          "DWORD",
          "arg3"
        ],
        [
          "DWORD",
          "arg4"
        ]
      ],
      "call": "std"
    },
    "GetOwnerModuleFromTcp6Entry": {
      "args": [
        [
          "PMIB_TCP6ROW_OWNER_MODULE",
          "pTcpEntry"
        ],
        [
          "TCPIP_OWNER_MODULE_INFO_CLASS",
          "Class"
        ],
        [
          "PVOID",
          "pBuffer"
        ],
        [
          "PDWORD",
          "pdwSize"
        ]
      ],
      "call": "std"
    },
    "GetOwnerModuleFromTcpEntry": {
      "args": [
        [
          "PMIB_TCPROW_OWNER_MODULE",
          "pTcpEntry"
        ],
        [
          "TCPIP_OWNER_MODULE_INFO_CLASS",
          "Class"
        ],
        [
          "PVOID",
          "pBuffer"
        ],
        [
          "PDWORD",
          "pdwSize"
        ]
      ],
      "call": "std"
    },
    "GetOwnerModuleFromUdp6Entry": {
      "args": [
        [
          "PMIB_UDP6ROW_OWNER_MODULE",
          "pUdpEntry"
        ],
        [
          "TCPIP_OWNER_MODULE_INFO_CLASS",
          "Class"
        ],
        [
          "PVOID",
          "pBuffer"
        ],
        [
          "PDWORD",
          "pdwSize"
        ]
      ],
      "call": "std"
    },
    "GetOwnerModuleFromUdpEntry": {
      "args": [
        [
          "PMIB_UDPROW_OWNER_MODULE",
          "pUdpEntry"
        ],
        [
          "TCPIP_OWNER_MODULE_INFO_CLASS",
          "Class"
        ],
        [
          "PVOID",
          "pBuffer"
        ],
        [
          "PDWORD",
          "pdwSize"
        ]
      ],
      "call": "std"
    },
    "GetPerAdapterInfo": {
      "args": [
        [
          "ULONG",
          "IfIndex"
        ],
        [
          "PIP_PER_ADAPTER_INFO",
          "pPerAdapterInfo"
        ],
        [
          "PULONG",
          "pOutBufLen"
        ]
      ],
      "call": "std"
    },
    "GetPerTcp6ConnectionEStats": {
      "args": [
        [
          "PMIB_TCP6ROW",
          "Row"
        ],
        [
          "TCP_ESTATS_TYPE",
          "EstatsType"
        ],
        [
          "PUCHAR",
          "Rw"
        ],
        [
          "ULONG",
          "RwVersion"
        ],
        [
          "ULONG",
          "RwSize"
        ],
        [
          "PUCHAR",
          "Ros"
        ],
        [
          "ULONG",
          "RosVersion"
        ],
        [
          "ULONG",
          "RosSize"
        ],
        [
          "PUCHAR",
          "Rod"
        ],
        [
          "ULONG",
          "RodVersion"
        ],
        [
          "ULONG",
          "RodSize"
        ]
      ],
      "call": "std"
    },
    "GetPerTcp6ConnectionStats": {
      "args": [
        [
          "DWORD",
          "arg0"
        ],
        [
          "DWORD",
          "arg1"
        ],
        [
          "DWORD",
          "arg2"
        ],
        [
          "DWORD",
          "arg3"
        ],
        [
          "DWORD",
          "arg4"
        ],
        [
          "DWORD",
          "arg5"
        ],
        [
          "DWORD",
          "arg6"
        ],
        [
          "DWORD",
          "arg7"
        ]
      ],
      "call": "std"
    },
    "GetPerTcpConnectionEStats": {
      "args": [
        [
          "PMIB_TCPROW",
          "Row"
        ],
        [
          "TCP_ESTATS_TYPE",
          "EstatsType"
        ],
        [
          "PUCHAR",
          "Rw"
        ],
        [
          "ULONG",
          "RwVersion"
        ],
        [
          "ULONG",
          "RwSize"
        ],
        [
          "PUCHAR",
          "Ros"
        ],
        [
          "ULONG",
          "RosVersion"
        ],
        [
          "ULONG",
          "RosSize"
        ],
        [
          "PUCHAR",
          "Rod"
        ],
        [
          "ULONG",
          "RodVersion"
        ],
        [
          "ULONG",
          "RodSize"
        ]
      ],
      "call": "std"
    },
    "GetPerTcpConnectionStats": {
      "args": [
        [
          "DWORD",
          "arg0"
        ],
        [
          "DWORD",
          "arg1"
        ],
        [
          "DWORD",
          "arg2"
        ],
        [
          "DWORD",
          "arg3"
        ],
        [
          "DWORD",
          "arg4"
        ],
        [
          "DWORD",
          "arg5"
        ],
        [
          "DWORD",
          "arg6"
        ],
        [
          "DWORD",
          "arg7"
        ]
      ],
      "call": "std"
    },
    "GetRTTAndHopCount": {
      "args": [
        [
          "IPAddr",
          "DestIpAddress"
        ],
        [
          "PULONG",
          "HopCount"
        ],
        [
          "ULONG",
          "MaxHops"
        ],
        [
          "PULONG",
          "RTT"
        ]
      ],
      "call": "std"
    },
    "GetSessionCompartmentId": {
      "args": [
        [
          "DWORD",
          "arg0"
        ]
      ],
      "call": "std"
    },
    "GetTcp6Table": {
      "args": [
        [
          "PMIB_TCP6TABLE",
          "TcpTable"
        ],
        [
          "PULONG",
          "SizePointer"
        ],
        [
          "BOOL",
          "Order"
        ]
      ],
      "call": "std"
    },
    "GetTcp6Table2": {
      "args": [
        [
          "PMIB_TCP6TABLE2",
          "TcpTable"
        ],
        [
          "PULONG",
          "SizePointer"
        ],
        [
          "BOOL",
          "Order"
        ]
      ],
      "call": "std"
    },
    "GetTcpStatistics": {
      "args": [
        [
          "PMIB_TCPSTATS",
          "Statistics"
        ]
      ],
      "call": "std"
    },
    "GetTcpStatisticsEx": {
      "args": [
        [
          "PMIB_TCPSTATS",
          "Statistics"
        ],
        [
          "ULONG",
          "Family"
        ]
      ],
      "call": "std"
    },
    "GetTcpStatisticsEx2": {
      "args": [
        [
          "DWORD",
          "arg0"
        ],
        [
          "DWORD",
          "arg1"
        ]
      ],
      "call": "std"
    },
    "GetTcpTable": {
      "args": [
        [
          "PMIB_TCPTABLE",
          "TcpTable"
        ],
        [
          "PULONG",
          "SizePointer"
        ],
        [
          "BOOL",
          "Order"
        ]
      ],
      "call": "std"
    },
    "GetTcpTable2": {
      "args": [
        [
          "PMIB_TCPTABLE2",
          "TcpTable"
        ],
        [
          "PULONG",
          "SizePointer"
        ],
        [
          "BOOL",
          "Order"
        ]
      ],
      "call": "std"
    },
    "GetTeredoPort": {
      "args": [
        [
          "DWORD",
          "arg0"
        ]
      ],
      "call": "std"
    },
    "GetUdp6Table": {
      "args": [
        [
          "PMIB_UDP6TABLE",
          "Udp6Table"
        ],
        [
          "PULONG",
          "SizePointer"
        ],
        [
          "BOOL",
          "Order"
        ]
      ],
      "call": "std"
    },
    "GetUdpStatistics": {
      "args": [
        [
          "PMIB_UDPSTATS",
          "Stats"
        ]
      ],
      "call": "std"
    },
    "GetUdpStatisticsEx": {
      "args": [
        [
          "PMIB_UDPSTATS",
          "Statistics"
        ],
        [
          "ULONG",
          "Family"
        ]
      ],
      "call": "std"
    },
    "GetUdpStatisticsEx2": {
      "args": [
        [
          "DWORD",
          "arg0"
        ],
        [
          "DWORD",
          "arg1"
        ]
      ],
      "call": "std"
    },
    "GetUdpTable": {
      "args": [
        [
          "PMIB_UDPTABLE",
          "UdpTable"
        ],
        [
          "PULONG",
          "SizePointer"
        ],
        [
          "BOOL",
          "Order"
        ]
      ],
      "call": "std"
    },
    "GetUniDirectionalAdapterInfo": {
      "args": [
        [
          "PIP_UNIDIRECTIONAL_ADAPTER_ADDRESS",
          "pIPIfInfo"
        ],
        [
          "PULONG",
          "dwOutBufLen"
        ]
      ],
      "call": "std"
    },
    "GetUnicastIpAddressEntry": {
      "args": [
        [
          "DWORD",
          "arg0"
        ]
      ],
      "call": "std"
    },
    "GetUnicastIpAddressTable": {
      "args": [
        [
          "DWORD",
          "arg0"
        ],
        [
          "DWORD",
          "arg1"
        ]
      ],
      "call": "std"
    },
    "GetWPAOACSupportLevel": {
      "args": [],
      "call": "std"
    },
    "Icmp6CreateFile": {
      "args": [],
      "call": "std"
    },
    "Icmp6ParseReplies": {
      "args": [
        [
          "LPVOID",
          "ReplyBuffer"
        ],
        [
          "DWORD",
          "ReplySize"
        ]
      ],
      "call": "std"
    },
    "Icmp6SendEcho2": {
      "args": [
        [
          "HANDLE",
          "IcmpHandle"
        ],
        [
          "HANDLE",
          "Event"
        ],
        [
          "PIO_APC_ROUTINE",
          "ApcRoutine"
        ],
        [
          "FARPROC",
          "ApcRoutine"
        ],
        [
          "PVOID",
          "ApcContext"
        ],
        [
          "*",
          "SourceAddress"
        ],
        [
          "*",
          "DestinationAddress"
        ],
        [
          "LPVOID",
          "RequestData"
        ],
        [
          "WORD",
          "RequestSize"
        ],
        [
          "PIP_OPTION_INFORMATION",
          "RequestOptions"
        ],
        [
          "LPVOID",
          "ReplyBuffer"
        ],
        [
          "DWORD",
          "ReplySize"
        ],
        [
          "DWORD",
          "Timeout"
        ]
      ],
      "call": "std"
    },
    "IcmpCloseHandle": {
      "args": [
        [
          "HANDLE",
          "IcmpHandle"
        ]
      ],
      "call": "std"
    },
    "IcmpCreateFile": {
      "args": [],
      "call": "std"
    },
    "IcmpParseReplies": {
      "args": [
        [
          "LPVOID",
          "ReplyBuffer"
        ],
        [
          "DWORD",
          "ReplySize"
        ]
      ],
      "call": "std"
    },
    "IcmpSendEcho": {
      "args": [
        [
          "HANDLE",
          "IcmpHandle"
        ],
        [
          "IPAddr",
          "DestinationAddress"
        ],
        [
          "LPVOID",
          "RequestData"
        ],
        [
          "WORD",
          "RequestSize"
        ],
        [
          "PIP_OPTION_INFORMATION",
          "RequestOptions"
        ],
        [
          "LPVOID",
          "ReplyBuffer"
        ],
        [
          "DWORD",
          "ReplySize"
        ],
        [
          "DWORD",
          "Timeout"
        ]
      ],
      "call": "std"
    },
    "IcmpSendEcho2": {
      "args": [
        [
          "HANDLE",
          "IcmpHandle"
        ],
        [
          "HANDLE",
          "Event"
        ],
        [
          "PIO_APC_ROUTINE",
          "ApcRoutine"
        ],
        [
          "FARPROC",
          "ApcRoutine"
        ],
        [
          "PVOID",
          "ApcContext"
        ],
        [
          "IPAddr",
          "DestinationAddress"
        ],
        [
          "LPVOID",
          "RequestData"
        ],
        [
          "WORD",
          "RequestSize"
        ],
        [
          "PIP_OPTION_INFORMATION",
          "RequestOptions"
        ],
        [
          "LPVOID",
          "ReplyBuffer"
        ],
        [
          "DWORD",
          "ReplySize"
        ],
        [
          "DWORD",
          "Timeout"
        ]
      ],
      "call": "std"
    },
    "IcmpSendEcho2Ex": {
      "args": [
        [
          "HANDLE",
          "IcmpHandle"
        ],
        [
          "HANDLE",
          "Event"
        ],
        [
          "PIO_APC_ROUTINE",
          "ApcRoutine"
        ],
        [
          "FARPROC",
          "ApcRoutine"
        ],
        [
          "PVOID",
          "ApcContext"
        ],
        [
          "IPAddr",
          "SourceAddress"
        ],
        [
          "IPAddr",
          "DestinationAddress"
        ],
        [
          "LPVOID",
          "RequestData"
        ],
        [
          "WORD",
          "RequestSize"
        ],
        [
          "PIP_OPTION_INFORMATION",
          "RequestOptions"
        ],
        [
          "LPVOID",
          "ReplyBuffer"
        ],
        [
          "DWORD",
          "ReplySize"
        ],
        [
          "DWORD",
          "Timeout"
        ]
      ],
      "call": "std"
    },
    "InitializeCompartmentEntry": {
      "args": [
        [
          "DWORD",
          "arg0"
        ]
      ],
      "call": "std"
    },
    "InitializeIpForwardEntry": {
      "args": [
        [
          "DWORD",
          "arg0"
        ]
      ],
      "call": "std"
    },
    "InitializeIpInterfaceEntry": {
      "args": [
        [
          "DWORD",
          "arg0"
        ]
      ],
      "call": "std"
    },
    "InitializeUnicastIpAddressEntry": {
      "args": [
        [
          "DWORD",
          "arg0"
        ]
      ],
      "call": "std"
    },
    "InternalCleanupPersistentStore": {
      "args": [
        [
          "DWORD",
          "arg0"
        ],
        [
          "DWORD",
          "arg1"
        ]
      ],
      "call": "std"
    },
    "InternalCreateAnycastIpAddressEntry": {
      "args": [
        [
          "DWORD",
          "arg0"
        ],
        [
          "DWORD",
          "arg1"
        ]
      ],
      "call": "std"
    },
    "InternalCreateIpForwardEntry": {
      "args": [
        [
          "DWORD",
          "arg0"
        ]
      ],
      "call": "std"
    },
    "InternalCreateIpForwardEntry2": {
      "args": [
        [
          "DWORD",
          "arg0"
        ],
        [
          "DWORD",
          "arg1"
        ]
      ],
      "call": "std"
    },
    "InternalCreateIpNetEntry": {
      "args": [
        [
          "DWORD",
          "arg0"
        ]
      ],
      "call": "std"
    },
    "InternalCreateIpNetEntry2": {
      "args": [
        [
          "DWORD",
          "arg0"
        ],
        [
          "DWORD",
          "arg1"
        ]
      ],
      "call": "std"
    },
    "InternalCreateUnicastIpAddressEntry": {
      "args": [
        [
          "DWORD",
          "arg0"
        ],
        [
          "DWORD",
          "arg1"
        ]
      ],
      "call": "std"
    },
    "InternalDeleteAnycastIpAddressEntry": {
      "args": [
        [
          "DWORD",
          "arg0"
        ],
        [
          "DWORD",
          "arg1"
        ]
      ],
      "call": "std"
    },
    "InternalDeleteIpForwardEntry": {
      "args": [
        [
          "DWORD",
          "arg0"
        ]
      ],
      "call": "std"
    },
    "InternalDeleteIpForwardEntry2": {
      "args": [
        [
          "DWORD",
          "arg0"
        ],
        [
          "DWORD",
          "arg1"
        ]
      ],
      "call": "std"
    },
    "InternalDeleteIpNetEntry": {
      "args": [
        [
          "DWORD",
          "arg0"
        ]
      ],
      "call": "std"
    },
    "InternalDeleteIpNetEntry2": {
      "args": [
        [
          "DWORD",
          "arg0"
        ],
        [
          "DWORD",
          "arg1"
        ]
      ],
      "call": "std"
    },
    "InternalDeleteUnicastIpAddressEntry": {
      "args": [
        [
          "DWORD",
          "arg0"
        ],
        [
          "DWORD",
          "arg1"
        ]
      ],
      "call": "std"
    },
    "InternalFindInterfaceByAddress": {
      "args": [
        [
          "DWORD",
          "arg0"
        ],
        [
          "DWORD",
          "arg1"
        ]
      ],
      "call": "std"
    },
    "InternalGetAnycastIpAddressEntry": {
      "args": [
        [
          "DWORD",
          "arg0"
        ],
        [
          "DWORD",
          "arg1"
        ]
      ],
      "call": "std"
    },
    "InternalGetAnycastIpAddressTable": {
      "args": [
        [
          "DWORD",
          "arg0"
        ],
        [
          "DWORD",
          "arg1"
        ],
        [
          "DWORD",
          "arg2"
        ]
      ],
      "call": "std"
    },
    "InternalGetBoundTcp6EndpointTable": {
      "args": [
        [
          "DWORD",
          "arg0"
        ],
        [
          "DWORD",
          "arg1"
        ],
        [
          "DWORD",
          "arg2"
        ]
      ],
      "call": "std"
    },
    "InternalGetBoundTcpEndpointTable": {
      "args": [
        [
          "DWORD",
          "arg0"
        ],
        [
          "DWORD",
          "arg1"
        ],
        [
          "DWORD",
          "arg2"
        ]
      ],
      "call": "std"
    },
    "InternalGetForwardIpTable2": {
      "args": [
        [
          "DWORD",
          "arg0"
        ],
        [
          "DWORD",
          "arg1"
        ],
        [
          "DWORD",
          "arg2"
        ]
      ],
      "call": "std"
    },
    "InternalGetIPPhysicalInterfaceForDestination": {
      "args": [
        [
          "DWORD",
          "arg0"
        ],
        [
          "DWORD",
          "arg1"
        ],
        [
          "DWORD",
          "arg2"
        ],
        [
          "DWORD",
          "arg3"
        ],
        [
          "DWORD",
          "arg4"
        ],
        [
          "DWORD",
          "arg5"
        ],
        [
          "DWORD",
          "arg6"
        ]
      ],
      "call": "std"
    },
    "InternalGetIfEntry2": {
      "args": [
        [
          "DWORD",
          "arg0"
        ],
        [
          "DWORD",
          "arg1"
        ]
      ],
      "call": "std"
    },
    "InternalGetIfTable": {
      "args": [
        [
          "DWORD",
          "arg0"
        ],
        [
          "DWORD",
          "arg1"
        ],
        [
          "DWORD",
          "arg2"
        ]
      ],
      "call": "std"
    },
    "InternalGetIfTable2": {
      "args": [
        [
          "DWORD",
          "arg0"
        ],
        [
          "DWORD",
          "arg1"
        ]
      ],
      "call": "std"
    },
    "InternalGetIpAddrTable": {
      "args": [
        [
          "DWORD",
          "arg0"
        ],
        [
          "DWORD",
          "arg1"
        ],
        [
          "DWORD",
          "arg2"
        ]
      ],
      "call": "std"
    },
    "InternalGetIpForwardEntry2": {
      "args": [
        [
          "DWORD",
          "arg0"
        ],
        [
          "DWORD",
          "arg1"
        ]
      ],
      "call": "std"
    },
    "InternalGetIpForwardTable": {
      "args": [
        [
          "DWORD",
          "arg0"
        ],
        [
          "DWORD",
          "arg1"
        ],
        [
          "DWORD",
          "arg2"
        ]
      ],
      "call": "std"
    },
    "InternalGetIpInterfaceEntry": {
      "args": [
        [
          "DWORD",
          "arg0"
        ],
        [
          "DWORD",
          "arg1"
        ]
      ],
      "call": "std"
    },
    "InternalGetIpInterfaceTable": {
      "args": [
        [
          "DWORD",
          "arg0"
        ],
        [
          "DWORD",
          "arg1"
        ],
        [
          "DWORD",
          "arg2"
        ]
      ],
      "call": "std"
    },
    "InternalGetIpNetEntry2": {
      "args": [
        [
          "DWORD",
          "arg0"
        ],
        [
          "DWORD",
          "arg1"
        ]
      ],
      "call": "std"
    },
    "InternalGetIpNetTable": {
      "args": [
        [
          "DWORD",
          "arg0"
        ],
        [
          "DWORD",
          "arg1"
        ],
        [
          "DWORD",
          "arg2"
        ]
      ],
      "call": "std"
    },
    "InternalGetIpNetTable2": {
      "args": [
        [
          "DWORD",
          "arg0"
        ],
        [
          "DWORD",
          "arg1"
        ],
        [
          "DWORD",
          "arg2"
        ]
      ],
      "call": "std"
    },
    "InternalGetMulticastIpAddressEntry": {
      "args": [
        [
          "DWORD",
          "arg0"
        ],
        [
          "DWORD",
          "arg1"
        ]
      ],
      "call": "std"
    },
    "InternalGetMulticastIpAddressTable": {
      "args": [
        [
          "DWORD",
          "arg0"
        ],
        [
          "DWORD",
          "arg1"
        ],
        [
          "DWORD",
          "arg2"
        ]
      ],
      "call": "std"
    },
    "InternalGetTcp6Table2": {
      "args": [
        [
          "DWORD",
          "arg0"
        ],
        [
          "DWORD",
          "arg1"
        ],
        [
          "DWORD",
          "arg2"
        ]
      ],
      "call": "std"
    },
    "InternalGetTcp6TableWithOwnerModule": {
      "args": [
        [
          "DWORD",
          "arg0"
        ],
        [
          "DWORD",
          "arg1"
        ],
        [
          "DWORD",
          "arg2"
        ]
      ],
      "call": "std"
    },
    "InternalGetTcp6TableWithOwnerPid": {
      "args": [
        [
          "DWORD",
          "arg0"
        ],
        [
          "DWORD",
          "arg1"
        ],
        [
          "DWORD",
          "arg2"
        ]
      ],
      "call": "std"
    },
    "InternalGetTcpTable": {
      "args": [
        [
          "DWORD",
          "arg0"
        ],
        [
          "DWORD",
          "arg1"
        ],
        [
          "DWORD",
          "arg2"
        ]
      ],
      "call": "std"
    },
    "InternalGetTcpTable2": {
      "args": [
        [
          "DWORD",
          "arg0"
        ],
        [
          "DWORD",
          "arg1"
        ],
        [
          "DWORD",
          "arg2"
        ]
      ],
      "call": "std"
    },
    "InternalGetTcpTableEx": {
      "args": [
        [
          "DWORD",
          "arg0"
        ],
        [
          "DWORD",
          "arg1"
        ],
        [
          "DWORD",
          "arg2"
        ]
      ],
      "call": "std"
    },
    "InternalGetTcpTableWithOwnerModule": {
      "args": [
        [
          "DWORD",
          "arg0"
        ],
        [
          "DWORD",
          "arg1"
        ],
        [
          "DWORD",
          "arg2"
        ]
      ],
      "call": "std"
    },
    "InternalGetTcpTableWithOwnerPid": {
      "args": [
        [
          "DWORD",
          "arg0"
        ],
        [
          "DWORD",
          "arg1"
        ],
        [
          "DWORD",
          "arg2"
        ]
      ],
      "call": "std"
    },
    "InternalGetTunnelPhysicalAdapter": {
      "args": [
        [
          "DWORD",
          "arg0"
        ],
        [
          "DWORD",
          "arg1"
        ]
      ],
      "call": "std"
    },
    "InternalGetUdp6TableWithOwnerModule": {
      "args": [
        [
          "DWORD",
          "arg0"
        ],
        [
          "DWORD",
          "arg1"
        ],
        [
          "DWORD",
          "arg2"
        ]
      ],
      "call": "std"
    },
    "InternalGetUdp6TableWithOwnerPid": {
      "args": [
        [
          "DWORD",
          "arg0"
        ],
        [
          "DWORD",
          "arg1"
        ],
        [
          "DWORD",
          "arg2"
        ]
      ],
      "call": "std"
    },
    "InternalGetUdpTable": {
      "args": [
        [
          "DWORD",
          "arg0"
        ],
        [
          "DWORD",
          "arg1"
        ],
        [
          "DWORD",
          "arg2"
        ]
      ],
      "call": "std"
    },
    "InternalGetUdpTableEx": {
      "args": [
        [
          "DWORD",
          "arg0"
        ],
        [
          "DWORD",
          "arg1"
        ],
        [
          "DWORD",
          "arg2"
        ]
      ],
      "call": "std"
    },
    "InternalGetUdpTableWithOwnerModule": {
      "args": [
        [
          "DWORD",
          "arg0"
        ],
        [
          "DWORD",
          "arg1"
        ],
        [
          "DWORD",
          "arg2"
        ]
      ],
      "call": "std"
    },
    "InternalGetUdpTableWithOwnerPid": {
      "args": [
        [
          "DWORD",
          "arg0"
        ],
        [
          "DWORD",
          "arg1"
        ],
        [
          "DWORD",
          "arg2"
        ]
      ],
      "call": "std"
    },
    "InternalGetUnicastIpAddressEntry": {
      "args": [
        [
          "DWORD",
          "arg0"
        ],
        [
          "DWORD",
          "arg1"
        ]
      ],
      "call": "std"
    },
    "InternalGetUnicastIpAddressTable": {
      "args": [
        [
          "DWORD",
          "arg0"
        ],
        [
          "DWORD",
          "arg1"
        ],
        [
          "DWORD",
          "arg2"
        ]
      ],
      "call": "std"
    },
    "InternalIcmpCreateFileEx": {
      "args": [
        [
          "DWORD",
          "arg0"
        ]
      ],
      "call": "std"
    },
    "InternalSetIfEntry": {
      "args": [
        [
          "DWORD",
          "arg0"
        ]
      ],
      "call": "std"
    },
    "InternalSetIpForwardEntry": {
      "args": [
        [
          "DWORD",
          "arg0"
        ]
      ],
      "call": "std"
    },
    "InternalSetIpForwardEntry2": {
      "args": [
        [
          "DWORD",
          "arg0"
        ],
        [
          "DWORD",
          "arg1"
        ]
      ],
      "call": "std"
    },
    "InternalSetIpInterfaceEntry": {
      "args": [
        [
          "DWORD",
          "arg0"
        ],
        [
          "DWORD",
          "arg1"
        ]
      ],
      "call": "std"
    },
    "InternalSetIpNetEntry": {
      "args": [
        [
          "DWORD",
          "arg0"
        ]
      ],
      "call": "std"
    },
    "InternalSetIpNetEntry2": {
      "args": [
        [
          "DWORD",
          "arg0"
        ],
        [
          "DWORD",
          "arg1"
        ]
      ],
      "call": "std"
    },
    "InternalSetIpStats": {
      "args": [
        [
          "DWORD",
          "arg0"
        ]
      ],
      "call": "std"
    },
    "InternalSetTcpEntry": {
      "args": [
        [
          "DWORD",
          "arg0"
        ]
      ],
      "call": "std"
    },
    "InternalSetTeredoPort": {
      "args": [
        [
          "DWORD",
          "arg0"
        ]
      ],
      "call": "std"
    },
    "InternalSetUnicastIpAddressEntry": {
      "args": [
        [
          "DWORD",
          "arg0"
        ],
        [
          "DWORD",
          "arg1"
        ]
      ],
      "call": "std"
    },
    "IpReleaseAddress": {
      "args": [
        [
          "PIP_ADAPTER_INDEX_MAP",
          "AdapterInfo"
        ]
      ],
      "call": "std"
    },
    "IpRenewAddress": {
      "args": [
        [
          "PIP_ADAPTER_INDEX_MAP",
          "AdapterInfo"
        ]
      ],
      "call": "std"
    },
    "LookupPersistentTcpPortReservation": {
      "args": [
        [
          "USHORT",
          "StartPort"
        ],
        [
          "USHORT",
          "NumberOfPorts"
        ],
        [
          "PULONG64",
          "Token"
        ]
      ],
      "call": "std"
    },
    "LookupPersistentUdpPortReservation": {
      "args": [
        [
          "USHORT",
          "StartPort"
        ],
        [
          "USHORT",
          "NumberOfPorts"
        ],
        [
          "PULONG64",
          "Token"
        ]
      ],
      "call": "std"
    },
    "NTPTimeToNTFileTime": {
      "args": [
        [
          "DWORD",
          "arg0"
        ],
        [
          "DWORD",
          "arg1"
        ],
        [
          "DWORD",
          "arg2"
        ]
      ],
      "call": "std"
    },
    "NTTimeToNTPTime": {
      "args": [
        [
          "DWORD",
          "arg0"
        ],
        [
          "DWORD",
          "arg1"
        ]
      ],
      "call": "std"
    },
    "NhGetGuidFromInterfaceName": {
      "args": [
        [
          "DWORD",
          "arg0"
        ],
        [
          "DWORD",
          "arg1"
        ],
        [
          "DWORD",
          "arg2"
        ],
        [
          "DWORD",
          "arg3"
        ]
      ],
      "call": "std"
    },
    "NhGetInterfaceDescriptionFromGuid": {
      "args": [
        [
          "DWORD",
          "arg0"
        ],
        [
          "DWORD",
          "arg1"
        ],
        [
          "DWORD",
          "arg2"
        ],
        [
          "DWORD",
          "arg3"
        ],
        [
          "DWORD",
          "arg4"
        ]
      ],
      "call": "std"
    },
    "NhGetInterfaceNameFromDeviceGuid": {
      "args": [
        [
          "DWORD",
          "arg0"
        ],
        [
          "DWORD",
          "arg1"
        ],
        [
          "DWORD",
          "arg2"
        ],
        [
          "DWORD",
          "arg3"
        ],
        [
          "DWORD",
          "arg4"
        ]
      ],
      "call": "std"
    },
    "NhGetInterfaceNameFromGuid": {
      "args": [
        [
          "DWORD",
          "arg0"
        ],
        [
          "DWORD",
          "arg1"
        ],
        [
          "DWORD",
          "arg2"
        ],
        [
          "DWORD",
          "arg3"
        ],
        [
          "DWORD",
          "arg4"
        ]
      ],
      "call": "std"
    },
    "NhpAllocateAndGetInterfaceInfoFromStack": {
      "args": [
        [
          "*",
          "ppTable"
        ],
        [
          "PDWORD",
          "pdwCount"
        ],
        [
          "BOOL",
          "bOrder"
        ],
        [
          "HANDLE",
          "hHeap"
        ],
        [
          "DWORD",
          "dwFlags"
        ]
      ],
      "call": "std"
    },
    "NotifyAddrChange": {
      "args": [
        [
          "PHANDLE",
          "Handle"
        ],
        [
          "LPOVERLAPPED",
          "overlapped"
        ]
      ],
      "call": "std"
    },
    "NotifyCompartmentChange": {
      "args": [
        [
          "DWORD",
          "arg0"
        ],
        [
          "DWORD",
          "arg1"
        ],
        [
          "DWORD",
          "arg2"
        ],
        [
          "DWORD",
          "arg3"
        ]
      ],
      "call": "std"
    },
    "NotifyIpInterfaceChange": {
      "args": [
        [
          "DWORD",
          "arg0"
        ],
        [
          "DWORD",
          "arg1"
        ],
        [
          "DWORD",
          "arg2"
        ],
        [
          "DWORD",
          "arg3"
        ],
        [
          "DWORD",
          "arg4"
        ]
      ],
      "call": "std"
    },
    "NotifyRouteChange": {
      "args": [
        [
          "PHANDLE",
          "Handle"
        ],
        [
          "LPOVERLAPPED",
          "overlapped"
        ]
      ],
      "call": "std"
    },
    "NotifyRouteChange2": {
      "args": [
        [
          "DWORD",
          "arg0"
        ],
        [
          "DWORD",
          "arg1"
        ],
        [
          "DWORD",
          "arg2"
        ],
        [
          "DWORD",
          "arg3"
        ],
        [
          "DWORD",
          "arg4"
        ]
      ],
      "call": "std"
    },
    "NotifyStableUnicastIpAddressTable": {
      "args": [
        [
          "DWORD",
          "arg0"
        ],
        [
          "DWORD",
          "arg1"
        ],
        [
          "DWORD",
          "arg2"
        ],
        [
          "DWORD",
          "arg3"
        ],
        [
          "DWORD",
          "arg4"
        ]
      ],
      "call": "std"
    },
    "NotifyTeredoPortChange": {
      "args": [
        [
          "DWORD",
          "arg0"
        ],
        [
          "DWORD",
          "arg1"
        ],
        [
          "DWORD",
          "arg2"
        ],
        [
          "DWORD",
          "arg3"
        ]
      ],
      "call": "std"
    },
    "NotifyUnicastIpAddressChange": {
      "args": [
        [
          "DWORD",
          "arg0"
        ],
        [
          "DWORD",
          "arg1"
        ],
        [
          "DWORD",
          "arg2"
        ],
        [
          "DWORD",
          "arg3"
        ],
        [
          "DWORD",
          "arg4"
        ]
      ],
      "call": "std"
    },
    "OpenCompartment": {
      "args": [
        [
          "DWORD",
          "arg0"
        ],
        [
          "DWORD",
          "arg1"
        ]
      ],
      "call": "std"
    },
    "ParseNetworkString": {
      "args": [
        [
          "WCHAR*",
          "NetworkString"
        ],
        [
          "DWORD",
          "Types"
        ],
        [
          "PNET_ADDRESS_INFO",
          "AddressInfo"
        ],
        [
          "USHORT*",
          "PortNumber"
        ],
        [
          "BYTE*",
          "PrefixLength"
        ]
      ],
      "call": "std"
    },
    "ResolveIpNetEntry2": {
      "args": [
        [
          "DWORD",
          "arg0"
        ],
        [
          "DWORD",
          "arg1"
        ]
      ],
      "call": "std"
    },
    "ResolveNeighbor": {
      "args": [
        [
          "SOCKADDR*",
          "NetworkAddress"
        ],
        [
          "PVOID",
          "PhysicalAddress"
        ],
        [
          "PULONG",
          "PhysicalAddressLength"
        ]
      ],
      "call": "std"
    },
    "RestoreMediaSense": {
      "args": [
        [
          "OVERLAPPED*",
          "pOverlapped"
        ],
        [
          "LPDWORD",
          "lpdwEnableCount"
        ]
      ],
      "call": "std"
    },
    "SendARP": {
      "args": [
        [
          "IPAddr",
          "DestIP"
        ],
        [
          "IPAddr",
          "SrcIP"
        ],
        [
          "PVOID",
          "pMacAddr"
        ],
        [
          "PULONG",
          "PhyAddrLen"
        ]
      ],
      "call": "std"
    },
    "SetAdapterIpAddress": {
      "args": [
        [
          "DWORD",
          "arg0"
        ],
        [
          "DWORD",
          "arg1"
        ],
        [
          "DWORD",
          "arg2"
        ],
        [
          "DWORD",
          "arg3"
        ],
        [
          "DWORD",
          "arg4"
        ]
      ],
      "call": "std"
    },
    "SetCurrentThreadCompartmentId": {
      "args": [
        [
          "DWORD",
          "arg0"
        ]
      ],
      "call": "std"
    },
    "SetCurrentThreadCompartmentScope": {
      "args": [
        [
          "DWORD",
          "arg0"
        ]
      ],
      "call": "std"
    },
    "SetIfEntry": {
      "args": [
        [
          "PMIB_IFROW",
          "pIfRow"
        ]
      ],
      "call": "std"
    },
    "SetIpForwardEntry": {
      "args": [
        [
          "PMIB_IPFORWARDROW",
          "pRoute"
        ]
      ],
      "call": "std"
    },
    "SetIpForwardEntry2": {
      "args": [
        [
          "DWORD",
          "arg0"
        ]
      ],
      "call": "std"
    },
    "SetIpInterfaceEntry": {
      "args": [
        [
          "DWORD",
          "arg0"
        ]
      ],
      "call": "std"
    },
    "SetIpNetEntry": {
      "args": [
        [
          "PMIB_IPNETROW",
          "pArpEntry"
        ]
      ],
      "call": "std"
    },
    "SetIpNetEntry2": {
      "args": [
        [
          "DWORD",
          "arg0"
        ]
      ],
      "call": "std"
    },
    "SetIpStatistics": {
      "args": [
        [
          "PMIB_IPSTATS",
          "pIpStats"
        ]
      ],
      "call": "std"
    },
    "SetIpStatisticsEx": {
      "args": [
        [
          "PMIB_IPSTATS",
          "Statistics"
        ],
        [
          "ULONG",
          "Family"
        ]
      ],
      "call": "std"
    },
    "SetIpTTL": {
      "args": [
        [
          "UINT",
          "nTTL"
        ]
      ],
      "call": "std"
    },
    "SetJobCompartmentId": {
      "args": [
        [
          "DWORD",
          "arg0"
        ],
        [
          "DWORD",
          "arg1"
        ]
      ],
      "call": "std"
    },
    "SetNetworkInformation": {
      "args": [
        [
          "DWORD",
          "arg0"
        ],
        [
          "DWORD",
          "arg1"
        ],
        [
          "DWORD",
          "arg2"
        ]
      ],
      "call": "std"
    },
    "SetPerTcp6ConnectionEStats": {
      "args": [
        [
          "PMIB_TCP6ROW",
          "Row"
        ],
        [
          "TCP_ESTATS_TYPE",
          "EstatsType"
        ],
        [
          "PUCHAR",
          "Rw"
        ],
        [
          "ULONG",
          "RwVersion"
        ],
        [
          "ULONG",
          "RwSize"
        ],
        [
          "ULONG",
          "Offset"
        ]
      ],
      "call": "std"
    },
    "SetPerTcp6ConnectionStats": {
      "args": [
        [
          "DWORD",
          "arg0"
        ],
        [
          "DWORD",
          "arg1"
        ],
        [
          "DWORD",
          "arg2"
        ],
        [
          "DWORD",
          "arg3"
        ],
        [
          "DWORD",
          "arg4"
        ]
      ],
      "call": "std"
    },
    "SetPerTcpConnectionEStats": {
      "args": [
        [
          "PMIB_TCPROW",
          "Row"
        ],
        [
          "TCP_ESTATS_TYPE",
          "EstatsType"
        ],
        [
          "PUCHAR",
          "Rw"
        ],
        [
          "ULONG",
          "RwVersion"
        ],
        [
          "ULONG",
          "RwSize"
        ],
        [
          "ULONG",
          "Offset"
        ]
      ],
      "call": "std"
    },
    "SetPerTcpConnectionStats": {
      "args": [
        [
          "DWORD",
          "arg0"
        ],
        [
          "DWORD",
          "arg1"
        ],
        [
          "DWORD",
          "arg2"
        ],
        [
          "DWORD",
          "arg3"
        ],
        [
          "DWORD",
          "arg4"
        ]
      ],
      "call": "std"
    },
    "SetSessionCompartmentId": {
      "args": [
        [
          "DWORD",
          "arg0"
        ],
        [
          "DWORD",
          "arg1"
        ]
      ],
      "call": "std"
    },
    "SetTcpEntry": {
      "args": [
        [
          "PMIB_TCPROW",
          "pTcpRow"
        ]
      ],
      "call": "std"
    },
    "SetUnicastIpAddressEntry": {
      "args": [
        [
          "DWORD",
          "arg0"
        ]
      ],
      "call": "std"
    },
    "UnenableRouter": {
      "args": [
        [
          "OVERLAPPED*",
          "pOverlapped"
        ],
        [
          "LPDWORD",
          "lpdwEnableCount"
        ]
      ],
      "call": "std"
    },
    "do_echo_rep": {
      "args": [
        [
          "DWORD",
          "arg0"
        ],
        [
          "DWORD",
          "arg1"
        ],
        [
          "DWORD",
          "arg2"
        ],
        [
          "DWORD",
          "arg3"
        ],
        [
          "DWORD",
          "arg4"
        ],
        [
          "DWORD",
          "arg5"
        ],
        [
          "DWORD",
          "arg6"
        ],
        [
          "DWORD",
          "arg7"
        ],
        [
          "DWORD",
          "arg8"
        ],
        [
          "DWORD",
          "arg9"
        ]
      ],
      "call": "std"
    },
    "do_echo_req": {
      "args": [
        [
          "DWORD",
          "arg0"
        ],
        [
          "DWORD",
          "arg1"
        ],
        [
          "DWORD",
          "arg2"
        ],
        [
          "DWORD",
          "arg3"
        ],
        [
          "DWORD",
          "arg4"
        ],
        [
          "DWORD",
          "arg5"
        ],
        [
          "DWORD",
          "arg6"
        ],
        [
          "DWORD",
          "arg7"
        ],
        [
          "DWORD",
          "arg8"
        ],
        [
          "DWORD",
          "arg9"
        ]
      ],
      "call": "std"
    },
    "if_indextoname": {
      "args": [
        [
          "DWORD",
          "arg0"
        ],
        [
          "DWORD",
          "arg1"
        ]
      ],
      "call": "std"
    },
    "if_nametoindex": {
      "args": [
        [
          "DWORD",
          "arg0"
        ]
      ],
      "call": "std"
    },
    "register_icmp": {
      "args": [],
      "call": "std"
    }
  },
  "imagebase": 268435456
}