{
  "exports": {
    "FreeAddrInfoEx": {
      "args": [
        [
          "PADDRINFOEXA",
          "pAddrInfoEx"
        ]
      ],
      "call": "std"
    },
    "FreeAddrInfoExW": {
      "args": [
        [
          "PADDRINFOEXW",
          "pAddrInfoEx"
        ]
      ],
      "call": "std"
    },
    "FreeAddrInfoW": {
      "args": [
        [
          "PADDRINFOW",
          "pAddrInfo"
        ]
      ],
      "call": "std"
    },
    "GetAddrInfoExA": {
      "args": [
        [
          "PCSTR",
          "pName"
        ],
        [
          "PCSTR",
          "pServiceName"
        ],
        [
          "DWORD",
          "dwNameSpace"
        ],
        [
          "LPGUID",
          "lpNspId"
        ],
        [
          "ADDRINFOEXA*",
          "hints"
        ],
        [
          "PADDRINFOEXA*",
          "ppResult"
        ],
        [
          "timeval*",
          "timeout"
        ],
        [
          "LPOVERLAPPED",
          "lpOverlapped"
        ],
        [
          "LPLOOKUPSERVICE_COMPLETION_ROUTINE",
          "lpCompletionRoutine"
        ],
        [
          "LPHANDLE",
          "lpNameHandle"
        ]
      ],
      "call": "std"
    },
    "GetAddrInfoExCancel": {
      "args": [
        [
          "DWORD",
          "arg0"
        ]
      ],
      "call": "std"
    },
    "GetAddrInfoExOverlappedResult": {
      "args": [
        [
          "DWORD",
          "arg0"
        ]
      ],
      "call": "std"
    },
    "GetAddrInfoExW": {
      "args": [
        [
          "PCWSTR",
          "pName"
        ],
        [
          "PCWSTR",
          "pServiceName"
        ],
        [
          "DWORD",
          "dwNameSpace"
        ],
        [
          "LPGUID",
          "lpNspId"
        ],
        [
          "ADDRINFOEXW*",
          "hints"
        ],
        [
          "PADDRINFOEXW*",
          "ppResult"
        ],
        [
          "timeval*",
          "timeout"
        ],
        [
          "LPOVERLAPPED",
          "lpOverlapped"
        ],
        [
          "LPLOOKUPSERVICE_COMPLETION_ROUTINE",
          "lpCompletionRoutine"
        ],
        [
          "LPHANDLE",
          "lpHandle"
        ]
      ],
      "call": "std"
    },
    "GetAddrInfoW": {
      "args": [
        [
          "PCWSTR",
          "pNodeName"
        ],
        [
          "PCWSTR",
          "pServiceName"
        ],
        [
          "ADDRINFOW*",
          "pHints"
        ],
        [
          "PADDRINFOW*",
          "ppResult"
        ]
      ],
      "call": "std"
    },
    "GetHostNameW": {
      "args": [
        [
          "DWORD",
          "arg0"
        ],
        [
          "DWORD",
          "arg1"
        ]
      ],
      "call": "std"
    },
    "GetNameInfoW": {
      "args": [
        [
          "SOCKADDR*",
          "pSockaddr"
        ],
        [
          "socklen_t",
          "SockaddrLength"
        ],
        [
          "PWCHAR",
          "pNodeBuffer"
        ],
        [
          "DWORD",
          "NodeBufferSize"
        ],
        [
          "PWCHAR",
          "pServiceBuffer"
        ],
        [
          "DWORD",
          "ServiceBufferSize"
        ],
        [
          "INT",
          "Flags"
        ]
      ],
      "call": "std"
    },
    "InetNtopW": {
      "args": [
        [
          "INT",
          "Family"
        ],
        [
          "PVOID",
          "pAddr"
        ],
        [
          "PWSTR",
          "pStringBuf"
        ],
        [
          "size_t",
          "StringBufSize"
        ]
      ],
      "call": "std"
    },
    "InetPtonW": {
      "args": [
        [
          "INT",
          "Family"
        ],
        [
          "PCWSTR",
          "pszAddrString"
        ],
        [
          "PVOID",
          "pAddrBuf"
        ]
      ],
      "call": "std"
    },
    "SetAddrInfoExA": {
      "args": [
        [
          "PCSTR",
          "pName"
        ],
        [
          "PCSTR",
          "pServiceName"
        ],
        [
          "SOCKET_ADDRESS*",
          "pAddresses"
        ],
        [
          "DWORD",
          "dwAddressCount"
        ],
        [
          "LPBLOB",
          "lpBlob"
        ],
        [
          "DWORD",
          "dwFlags"
        ],
        [
          "DWORD",
          "dwNameSpace"
        ],
        [
          "LPGUID",
          "lpNspId"
        ],
        [
          "timeval*",
          "timeout"
        ],
        [
          "LPOVERLAPPED",
          "lpOverlapped"
        ],
        [
          "LPLOOKUPSERVICE_COMPLETION_ROUTINE",
          "lpCompletionRoutine"
        ],
        [
          "LPHANDLE",
          "lpNameHandle"
        ]
      ],
      "call": "std"
    },
    "SetAddrInfoExW": {
      "args": [
        [
          "PCWSTR",
          "pName"
        ],
        [
          "PCWSTR",
          "pServiceName"
        ],
        [
          "SOCKET_ADDRESS*",
          "pAddresses"
        ],
        [
          "DWORD",
          "dwAddressCount"
        ],
        [
          "LPBLOB",
          "lpBlob"
        ],
        [
          "DWORD",
          "dwFlags"
        ],
        [
          "DWORD",
          "dwNameSpace"
        ],
        [
          "LPGUID",
          "lpNspId"
        ],
        [
          "timeval*",
          "timeout"
        ],
        [
          "LPOVERLAPPED",
          "lpOverlapped"
        ],
        [
          "LPLOOKUPSERVICE_COMPLETION_ROUTINE",
          "lpCompletionRoutine"
        ],
        [
          "LPHANDLE",
          "lpNameHandle"
        ]
      ],
      "call": "std"
    },
    "WEP": {
      "args": [],
      "call": "std"
    },
    "WPUCompleteOverlappedRequest": {
      "args": [
        [
          "DWORD",
          "arg0"
        ],
        [
          "DWORD",
          "arg1"
        ],
        [
          "DWORD",
          "arg2"
        ],
        [
          "DWORD",
          "arg3"
        ],
        [
          "DWORD",
          "arg4"
        ]
      ],
      "call": "std"
    },
    "WPUGetProviderPathEx": {
      "args": [
        [
          "DWORD",
          "arg0"
        ],
        [
          "DWORD",
          "arg1"
        ],
        [
          "DWORD",
          "arg2"
        ],
        [
          "DWORD",
          "arg3"
        ],
        [
          "DWORD",
          "arg4"
        ]
      ],
      "call": "std"
    },
    "WSAAccept": {
      "args": [
        [
          "SOCKET",
          "s"
        ],
        [
          "FAR*",
          "addr"
        ],
        [
          "LPINT",
          "addrlen"
        ],
        [
          "LPCONDITIONPROC",
          "lpfnCondition"
        ],
        [
          "DWORD_PTR",
          "dwCallbackData"
        ]
      ],
      "call": "std"
    },
    "WSAAddressToStringA": {
      "args": [
        [
          "LPSOCKADDR",
          "lpsaAddress"
        ],
        [
          "DWORD",
          "dwAddressLength"
        ],
        [
          "LPWSAPROTOCOL_INFOA",
          "lpProtocolInfo"
        ],
        [
          "LPSTR",
          "lpszAddressString"
        ],
        [
          "LPDWORD",
          "lpdwAddressStringLength"
        ]
      ],
      "call": "std"
    },
    "WSAAddressToStringW": {
      "args": [
        [
          "LPSOCKADDR",
          "lpsaAddress"
        ],
        [
          "DWORD",
          "dwAddressLength"
        ],
        [
          "LPWSAPROTOCOL_INFOW",
          "lpProtocolInfo"
        ],
        [
          "LPWSTR",
          "lpszAddressString"
        ],
        [
          "LPDWORD",
          "lpdwAddressStringLength"
        ]
      ],
      "call": "std"
    },
    "WSAAdvertiseProvider": {
      "args": [
        [
          "GUID*",
          "puuidProviderId"
        ],
        [
          "LPCNSPV2_ROUTINE",
          "pNSPv2Routine"
        ]
      ],
      "call": "std"
    },
    "WSAAsyncGetHostByAddr": {
      "args": [
        [
          "HWND",
          "hWnd"
        ],
        [
          "u_int",
          "wMsg"
        ],
        [
          "FAR*",
          "addr"
        ],
        [
          "int",
          "len"
        ],
        [
          "int",
          "type"
        ],
        [
          "FAR*",
          "buf"
        ],
        [
          "int",
          "buflen"
        ]
      ],
      "call": "std"
    },
    "WSAAsyncGetHostByName": {
      "args": [
        [
          "HWND",
          "hWnd"
        ],
        [
          "u_int",
          "wMsg"
        ],
        [
          "FAR*",
          "name"
        ],
        [
          "FAR*",
          "buf"
        ],
        [
          "int",
          "buflen"
        ]
      ],
      "call": "std"
    },
    "WSAAsyncGetProtoByName": {
      "args": [
        [
          "HWND",
          "hWnd"
        ],
        [
          "u_int",
          "wMsg"
        ],
        [
          "FAR*",
          "name"
        ],
        [
          "FAR*",
          "buf"
        ],
        [
          "int",
          "buflen"
        ]
      ],
      "call": "std"
    },
    "WSAAsyncGetProtoByNumber": {
      "args": [
        [
          "HWND",
          "hWnd"
        ],
        [
          "u_int",
          "wMsg"
        ],
        [
          "int",
          "number"
        ],
        [
          "FAR*",
          "buf"
        ],
        [
          "int",
          "buflen"
        ]
      ],
      "call": "std"
    },
    "WSAAsyncGetServByName": {
      "args": [
        [
          "HWND",
          "hWnd"
        ],
        [
          "u_int",
          "wMsg"
        ],
        [
          "FAR*",
          "name"
        ],
        [
          "FAR*",
          "proto"
        ],
        [
          "FAR*",
          "buf"
        ],
        [
          "int",
          "buflen"
        ]
      ],
      "call": "std"
    },
    "WSAAsyncGetServByPort": {
      "args": [
        [
          "HWND",
          "hWnd"
        ],
        [
          "u_int",
          "wMsg"
        ],
        [
          "int",
          "port"
        ],
        [
          "FAR*",
          "proto"
        ],
        [
          "FAR*",
          "buf"
        ],
        [
          "int",
          "buflen"
        ]
      ],
      "call": "std"
    },
    "WSAAsyncSelect": {
      "args": [
        [
          "SOCKET",
          "s"
        ],
        [
          "HWND",
          "hWnd"
        ],
        [
          "u_int",
          "wMsg"
        ],
        [
          "long",
          "lEvent"
        ]
      ],
      "call": "std"
    },
    "WSACancelAsyncRequest": {
      "args": [
        [
          "HANDLE",
          "hAsyncTaskHandle"
        ]
      ],
      "call": "std"
    },
    "WSACancelBlockingCall": {
      "args": [],
      "call": "std"
    },
    "WSACleanup": {
      "args": [],
      "call": "std"
    },
    "WSACloseEvent": {
      "args": [
        [
          "WSAEVENT",
          "hEvent"
        ]
      ],
      "call": "std"
    },
    "WSAConnect": {
      "args": [
        [
          "SOCKET",
          "s"
        ],
        [
          "FAR*",
          "name"
        ],
        [
          "int",
          "namelen"
        ],
        [
          "LPWSABUF",
          "lpCallerData"
        ],
        [
          "LPWSABUF",
          "lpCalleeData"
        ],
        [
          "LPQOS",
          "lpSQOS"
        ],
        [
          "LPQOS",
          "lpGQOS"
        ]
      ],
      "call": "std"
    },
    "WSAConnectByList": {
      "args": [
        [
          "DWORD",
          "arg0"
        ],
        [
          "DWORD",
          "arg1"
        ],
        [
          "DWORD",
          "arg2"
        ],
        [
          "DWORD",
          "arg3"
        ],
        [
          "DWORD",
          "arg4"
        ],
        [
          "DWORD",
          "arg5"
        ],
        [
          "DWORD",
          "arg6"
        ],
        [
          "DWORD",
          "arg7"
        ]
      ],
      "call": "std"
    },
    "WSAConnectByNameA": {
      "args": [
        [
          "DWORD",
          "arg0"
        ],
        [
          "DWORD",
          "arg1"
        ],
        [
          "DWORD",
          "arg2"
        ],
        [
          "DWORD",
          "arg3"
        ],
        [
          "DWORD",
          "arg4"
        ],
        [
          "DWORD",
          "arg5"
        ],
        [
          "DWORD",
          "arg6"
        ],
        [
          "DWORD",
          "arg7"
        ],
        [
          "DWORD",
          "arg8"
        ]
      ],
      "call": "std"
    },
    "WSAConnectByNameW": {
      "args": [
        [
          "DWORD",
          "arg0"
        ],
        [
          "DWORD",
          "arg1"
        ],
        [
          "DWORD",
          "arg2"
        ],
        [
          "DWORD",
          "arg3"
        ],
        [
          "DWORD",
          "arg4"
        ],
        [
          "DWORD",
          "arg5"
        ],
        [
          "DWORD",
          "arg6"
        ],
        [
          "DWORD",
          "arg7"
        ],
        [
          "DWORD",
          "arg8"
        ]
      ],
      "call": "std"
    },
    "WSACreateEvent": {
      "args": [],
      "call": "std"
    },
    "WSADuplicateSocketA": {
      "args": [
        [
          "SOCKET",
          "s"
        ],
        [
          "DWORD",
          "dwProcessId"
        ],
        [
          "LPWSAPROTOCOL_INFOA",
          "lpProtocolInfo"
        ]
      ],
      "call": "std"
    },
    "WSADuplicateSocketW": {
      "args": [
        [
          "SOCKET",
          "s"
        ],
        [
          "DWORD",
          "dwProcessId"
        ],
        [
          "LPWSAPROTOCOL_INFOW",
          "lpProtocolInfo"
        ]
      ],
      "call": "std"
    },
    "WSAEnumNameSpaceProvidersA": {
      "args": [
        [
          "LPDWORD",
          "lpdwBufferLength"
        ],
        [
          "LPWSANAMESPACE_INFOA",
          "lpnspBuffer"
        ]
      ],
      "call": "std"
    },
    "WSAEnumNameSpaceProvidersExA": {
      "args": [
        [
          "LPDWORD",
          "lpdwBufferLength"
        ],
        [
          "LPWSANAMESPACE_INFOEXA",
          "lpnspBuffer"
        ]
      ],
      "call": "std"
    },
    "WSAEnumNameSpaceProvidersExW": {
      "args": [
        [
          "LPDWORD",
          "lpdwBufferLength"
        ],
        [
          "LPWSANAMESPACE_INFOEXW",
          "lpnspBuffer"
        ]
      ],
      "call": "std"
    },
    "WSAEnumNameSpaceProvidersW": {
      "args": [
        [
          "LPDWORD",
          "lpdwBufferLength"
        ],
        [
          "LPWSANAMESPACE_INFOW",
          "lpnspBuffer"
        ]
      ],
      "call": "std"
    },
    "WSAEnumNetworkEvents": {
      "args": [
        [
          "SOCKET",
          "s"
        ],
        [
          "WSAEVENT",
          "hEventObject"
        ],
        [
          "LPWSANETWORKEVENTS",
          "lpNetworkEvents"
        ]
      ],
      "call": "std"
    },
    "WSAEnumProtocolsA": {
      "args": [
        [
          "LPINT",
          "lpiProtocols"
        ],
        [
          "LPWSAPROTOCOL_INFOA",
          "lpProtocolBuffer"
        ],
        [
          "LPDWORD",
          "lpdwBufferLength"
        ]
      ],
      "call": "std"
    },
    "WSAEnumProtocolsW": {
      "args": [
        [
          "LPINT",
          "lpiProtocols"
        ],
        [
          "LPWSAPROTOCOL_INFOW",
          "lpProtocolBuffer"
        ],
        [
          "LPDWORD",
          "lpdwBufferLength"
        ]
      ],
      "call": "std"
    },
    "WSAEventSelect": {
      "args": [
        [
          "SOCKET",
          "s"
        ],
        [
          "WSAEVENT",
          "hEventObject"
        ],
        [
          "long",
          "lNetworkEvents"
        ]
      ],
      "call": "std"
    },
    "WSAGetLastError": {
      "args": [],
      "call": "std"
    },
    "WSAGetOverlappedResult": {
      "args": [
        [
          "SOCKET",
          "s"
        ],
        [
          "LPWSAOVERLAPPED",
          "lpOverlapped"
        ],
        [
          "LPDWORD",
          "lpcbTransfer"
        ],
        [
          "BOOL",
          "fWait"
        ],
        [
          "LPDWORD",
          "lpdwFlags"
        ]
      ],
      "call": "std"
    },
    "WSAGetQOSByName": {
      "args": [
        [
          "SOCKET",
          "s"
        ],
        [
          "LPWSABUF",
          "lpQOSName"
        ],
        [
          "LPQOS",
          "lpQOS"
        ]
      ],
      "call": "std"
    },
    "WSAGetServiceClassInfoA": {
      "args": [
        [
          "LPGUID",
          "lpProviderId"
        ],
        [
          "LPGUID",
          "lpServiceClassId"
        ],
        [
          "LPDWORD",
          "lpdwBufSize"
        ],
        [
          "LPWSASERVICECLASSINFOA",
          "lpServiceClassInfo"
        ]
      ],
      "call": "std"
    },
    "WSAGetServiceClassInfoW": {
      "args": [
        [
          "LPGUID",
          "lpProviderId"
        ],
        [
          "LPGUID",
          "lpServiceClassId"
        ],
        [
          "LPDWORD",
          "lpdwBufSize"
        ],
        [
          "LPWSASERVICECLASSINFOW",
          "lpServiceClassInfo"
        ]
      ],
      "call": "std"
    },
    "WSAGetServiceClassNameByClassIdA": {
      "args": [
        [
          "LPGUID",
          "lpServiceClassId"
        ],
        [
          "LPSTR",
          "lpszServiceClassName"
        ],
        [
          "LPDWORD",
          "lpdwBufferLength"
        ]
      ],
      "call": "std"
    },
    "WSAGetServiceClassNameByClassIdW": {
      "args": [
        [
          "LPGUID",
          "lpServiceClassId"
        ],
        [
          "LPWSTR",
          "lpszServiceClassName"
        ],
        [
          "LPDWORD",
          "lpdwBufferLength"
        ]
      ],
      "call": "std"
    },
    "WSAHtonl": {
      "args": [
        [
          "SOCKET",
          "s"
        ],
        [
          "u_long",
          "hostlong"
        ],
        [
          "FAR*",
          "lpnetlong"
        ]
      ],
      "call": "std"
    },
    "WSAHtons": {
      "args": [
        [
          "SOCKET",
          "s"
        ],
        [
          "u_short",
          "hostshort"
        ],
        [
          "FAR*",
          "lpnetshort"
        ]
      ],
      "call": "std"
    },
    "WSAInstallServiceClassA": {
      "args": [
        [
          "LPWSASERVICECLASSINFOA",
          "lpServiceClassInfo"
        ]
      ],
      "call": "std"
    },
    "WSAInstallServiceClassW": {
      "args": [
        [
          "LPWSASERVICECLASSINFOW",
          "lpServiceClassInfo"
        ]
      ],
      "call": "std"
    },
    "WSAIoctl": {
      "args": [
        [
          "SOCKET",
          "s"
        ],
        [
          "DWORD",
          "dwIoControlCode"
        ],
        [
          "LPVOID",
          "lpvInBuffer"
        ],
        [
          "DWORD",
          "cbInBuffer"
        ],
        [
          "LPVOID",
          "lpvOutBuffer"
        ],
        [
          "DWORD",
          "cbOutBuffer"
        ],
        [
          "LPDWORD",
          "lpcbBytesReturned"
        ],
        [
          "LPWSAOVERLAPPED",
          "lpOverlapped"
        ],
        [
          "LPWSAOVERLAPPED_COMPLETION_ROUTINE",
          "lpCompletionRoutine"
        ]
      ],
      "call": "std"
    },
    "WSAIsBlocking": {
      "args": [],
      "call": "std"
    },
    "WSAJoinLeaf": {
      "args": [
        [
          "SOCKET",
          "s"
        ],
        [
          "FAR*",
          "name"
        ],
        [
          "int",
          "namelen"
        ],
        [
          "LPWSABUF",
          "lpCallerData"
        ],
        [
          "LPWSABUF",
          "lpCalleeData"
        ],
        [
          "LPQOS",
          "lpSQOS"
        ],
        [
          "LPQOS",
          "lpGQOS"
        ],
        [
          "DWORD",
          "dwFlags"
        ]
      ],
      "call": "std"
    },
    "WSALookupServiceBeginA": {
      "args": [
        [
          "LPWSAQUERYSETA",
          "lpqsRestrictions"
        ],
        [
          "DWORD",
          "dwControlFlags"
        ],
        [
          "LPHANDLE",
          "lphLookup"
        ]
      ],
      "call": "std"
    },
    "WSALookupServiceBeginW": {
      "args": [
        [
          "LPWSAQUERYSETW",
          "lpqsRestrictions"
        ],
        [
          "DWORD",
          "dwControlFlags"
        ],
        [
          "LPHANDLE",
          "lphLookup"
        ]
      ],
      "call": "std"
    },
    "WSALookupServiceEnd": {
      "args": [
        [
          "HANDLE",
          "hLookup"
        ]
      ],
      "call": "std"
    },
    "WSALookupServiceNextA": {
      "args": [
        [
          "HANDLE",
          "hLookup"
        ],
        [
          "DWORD",
          "dwControlFlags"
        ],
        [
          "LPDWORD",
          "lpdwBufferLength"
        ],
        [
          "LPWSAQUERYSETA",
          "lpqsResults"
        ]
      ],
      "call": "std"
    },
    "WSALookupServiceNextW": {
      "args": [
        [
          "HANDLE",
          "hLookup"
        ],
        [
          "DWORD",
          "dwControlFlags"
        ],
        [
          "LPDWORD",
          "lpdwBufferLength"
        ],
        [
          "LPWSAQUERYSETW",
          "lpqsResults"
        ]
      ],
      "call": "std"
    },
    "WSANSPIoctl": {
      "args": [
        [
          "HANDLE",
          "hLookup"
        ],
        [
          "DWORD",
          "dwControlCode"
        ],
        [
          "LPVOID",
          "lpvInBuffer"
        ],
        [
          "DWORD",
          "cbInBuffer"
        ],
        [
          "LPVOID",
          "lpvOutBuffer"
        ],
        [
          "DWORD",
          "cbOutBuffer"
        ],
        [
          "LPDWORD",
          "lpcbBytesReturned"
        ],
        [
          "LPWSACOMPLETION",
          "lpCompletion"
        ]
      ],
      "call": "std"
    },
    "WSANtohl": {
      "args": [
        [
          "SOCKET",
          "s"
        ],
        [
          "u_long",
          "netlong"
        ],
        [
          "FAR*",
          "lphostlong"
        ]
      ],
      "call": "std"
    },
    "WSANtohs": {
      "args": [
        [
          "SOCKET",
          "s"
        ],
        [
          "u_short",
          "netshort"
        ],
        [
          "FAR*",
          "lphostshort"
        ]
      ],
      "call": "std"
    },
    "WSAPoll": {
      "args": [
        [
          "LPWSAPOLLFD",
          "fdArray"
        ],
        [
          "ULONG",
          "fds"
        ],
        [
          "INT",
          "timeout"
        ]
      ],
      "call": "std"
    },
    "WSAProviderCompleteAsyncCall": {
      "args": [
        [
          "HANDLE",
          "hAsyncCall"
        ],
        [
          "INT",
          "iRetCode"
        ]
      ],
      "call": "std"
    },
    "WSAProviderConfigChange": {
      "args": [
        [
          "LPHANDLE",
          "lpNotificationHandle"
        ],
        [
          "LPWSAOVERLAPPED",
          "lpOverlapped"
        ],
        [
          "LPWSAOVERLAPPED_COMPLETION_ROUTINE",
          "lpCompletionRoutine"
        ]
      ],
      "call": "std"
    },
    "WSARecv": {
      "args": [
        [
          "SOCKET",
          "s"
        ],
        [
          "LPWSABUF",
          "lpBuffers"
        ],
        [
          "DWORD",
          "dwBufferCount"
        ],
        [
          "LPDWORD",
          "lpNumberOfBytesRecvd"
        ],
        [
          "LPDWORD",
          "lpFlags"
        ],
        [
          "LPWSAOVERLAPPED",
          "lpOverlapped"
        ],
        [
          "LPWSAOVERLAPPED_COMPLETION_ROUTINE",
          "lpCompletionRoutine"
        ]
      ],
      "call": "std"
    },
    "WSARecvDisconnect": {
      "args": [
        [
          "SOCKET",
          "s"
        ],
        [
          "LPWSABUF",
          "lpInboundDisconnectData"
        ]
      ],
      "call": "std"
    },
    "WSARecvFrom": {
      "args": [
        [
          "SOCKET",
          "s"
        ],
        [
          "LPWSABUF",
          "lpBuffers"
        ],
        [
          "DWORD",
          "dwBufferCount"
        ],
        [
          "LPDWORD",
          "lpNumberOfBytesRecvd"
        ],
        [
          "LPDWORD",
          "lpFlags"
        ],
        [
          "FAR*",
          "lpFrom"
        ],
        [
          "LPINT",
          "lpFromlen"
        ],
        [
          "LPWSAOVERLAPPED",
          "lpOverlapped"
        ],
        [
          "LPWSAOVERLAPPED_COMPLETION_ROUTINE",
          "lpCompletionRoutine"
        ]
      ],
      "call": "std"
    },
    "WSARemoveServiceClass": {
      "args": [
        [
          "LPGUID",
          "lpServiceClassId"
        ]
      ],
      "call": "std"
    },
    "WSAResetEvent": {
      "args": [
        [
          "WSAEVENT",
          "hEvent"
        ]
      ],
      "call": "std"
    },
    "WSASend": {
      "args": [
        [
          "SOCKET",
          "s"
        ],
        [
          "LPWSABUF",
          "lpBuffers"
        ],
        [
          "DWORD",
          "dwBufferCount"
        ],
        [
          "LPDWORD",
          "lpNumberOfBytesSent"
        ],
        [
          "DWORD",
          "dwFlags"
        ],
        [
          "LPWSAOVERLAPPED",
          "lpOverlapped"
        ],
        [
          "LPWSAOVERLAPPED_COMPLETION_ROUTINE",
          "lpCompletionRoutine"
        ]
      ],
      "call": "std"
    },
    "WSASendDisconnect": {
      "args": [
        [
          "SOCKET",
          "s"
        ],
        [
          "LPWSABUF",
          "lpOutboundDisconnectData"
        ]
      ],
      "call": "std"
    },
    "WSASendMsg": {
      "args": [
        [
          "SOCKET",
          "Handle"
        ],
        [
          "LPWSAMSG",
          "lpMsg"
        ],
        [
          "DWORD",
          "dwFlags"
        ],
        [
          "LPDWORD",
          "lpNumberOfBytesSent"
        ],
        [
          "LPWSAOVERLAPPED",
          "lpOverlapped"
        ],
        [
          "LPWSAOVERLAPPED_COMPLETION_ROUTINE",
          "lpCompletionRoutine"
        ]
      ],
      "call": "std"
    },
    "WSASendTo": {
      "args": [
        [
          "SOCKET",
          "s"
        ],
        [
          "LPWSABUF",
          "lpBuffers"
        ],
        [
          "DWORD",
          "dwBufferCount"
        ],
        [
          "LPDWORD",
          "lpNumberOfBytesSent"
        ],
        [
          "DWORD",
          "dwFlags"
        ],
        [
          "FAR*",
          "lpTo"
        ],
        [
          "int",
          "iTolen"
        ],
        [
          "LPWSAOVERLAPPED",
          "lpOverlapped"
        ],
        [
          "LPWSAOVERLAPPED_COMPLETION_ROUTINE",
          "lpCompletionRoutine"
        ]
      ],
      "call": "std"
    },
    "WSASetBlockingHook": {
      "args": [
        [
          "FARPROC",
          "lpBlockFunc"
        ]
      ],
      "call": "std"
    },
    "WSASetEvent": {
      "args": [
        [
          "WSAEVENT",
          "hEvent"
        ]
      ],
      "call": "std"
    },
    "WSASetLastError": {
      "args": [
        [
          "int",
          "iError"
        ]
      ],
      "call": "std"
    },
    "WSASetServiceA": {
      "args": [
        [
          "LPWSAQUERYSETA",
          "lpqsRegInfo"
        ],
        [
          "WSAESETSERVICEOP",
          "essoperation"
        ],
        [
          "DWORD",
          "dwControlFlags"
        ]
      ],
      "call": "std"
    },
    "WSASetServiceW": {
      "args": [
        [
          "LPWSAQUERYSETW",
          "lpqsRegInfo"
        ],
        [
          "WSAESETSERVICEOP",
          "essoperation"
        ],
        [
          "DWORD",
          "dwControlFlags"
        ]
      ],
      "call": "std"
    },
    "WSASocketA": {
      "args": [
        [
          "int",
          "af"
        ],
        [
          "int",
          "type"
        ],
        [
          "int",
          "protocol"
        ],
        [
          "LPWSAPROTOCOL_INFOA",
          "lpProtocolInfo"
        ],
        [
          "GROUP",
          "g"
        ],
        [
          "DWORD",
          "dwFlags"
        ]
      ],
      "call": "std"
    },
    "WSASocketW": {
      "args": [
        [
          "int",
          "af"
        ],
        [
          "int",
          "type"
        ],
        [
          "int",
          "protocol"
        ],
        [
          "LPWSAPROTOCOL_INFOW",
          "lpProtocolInfo"
        ],
        [
          "GROUP",
          "g"
        ],
        [
          "DWORD",
          "dwFlags"
        ]
      ],
      "call": "std"
    },
    "WSAStartup": {
      "args": [
        [
          "WORD",
          "wVersionRequested"
        ],
        [
          "LPWSADATA",
          "lpWSAData"
        ]
      ],
      "call": "std"
    },
    "WSAStringToAddressA": {
      "args": [
        [
          "LPSTR",
          "AddressString"
        ],
        [
          "INT",
          "AddressFamily"
        ],
        [
          "LPWSAPROTOCOL_INFOA",
          "lpProtocolInfo"
        ],
        [
          "LPSOCKADDR",
          "lpAddress"
        ],
        [
          "LPINT",
          "lpAddressLength"
        ]
      ],
      "call": "std"
    },
    "WSAStringToAddressW": {
      "args": [
        [
          "LPWSTR",
          "AddressString"
        ],
        [
          "INT",
          "AddressFamily"
        ],
        [
          "LPWSAPROTOCOL_INFOW",
          "lpProtocolInfo"
        ],
        [
          "LPSOCKADDR",
          "lpAddress"
        ],
        [
          "LPINT",
          "lpAddressLength"
        ]
      ],
      "call": "std"
    },
    "WSAUnadvertiseProvider": {
      "args": [
        [
          "GUID*",
          "puuidProviderId"
        ]
      ],
      "call": "std"
    },
    "WSAUnhookBlockingHook": {
      "args": [],
      "call": "std"
    },
    "WSAWaitForMultipleEvents": {
      "args": [
        [
          "DWORD",
          "cEvents"
        ],
        [
          "FAR*",
          "lphEvents"
        ],
        [
          "BOOL",
          "fWaitAll"
        ],
        [
          "DWORD",
          "dwTimeout"
        ],
        [
          "BOOL",
          "fAlertable"
        ]
      ],
      "call": "std"
    },
    "WSApSetPostRoutine": {
      "args": [
        [
          "DWORD",
          "arg0"
        ]
      ],
      "call": "std"
    },
    "WSCDeinstallProvider": {
      "args": [
        [
          "DWORD",
          "arg0"
        ],
        [
          "DWORD",
          "arg1"
        ]
      ],
      "call": "std"
    },
    "WSCDeinstallProviderEx": {
      "args": [],
      "call": "std"
    },
    "WSCEnableNSProvider": {
      "args": [],
      "call": "std"
    },
    "WSCEnumProtocols": {
      "args": [
        [
          "DWORD",
          "arg0"
        ],
        [
          "DWORD",
          "arg1"
        ],
        [
          "DWORD",
          "arg2"
        ],
        [
          "DWORD",
          "arg3"
        ]
      ],
      "call": "std"
    },
    "WSCEnumProtocolsEx": {
      "args": [
        [
          "DWORD",
          "arg0"
        ],
        [
          "DWORD",
          "arg1"
        ],
        [
          "DWORD",
          "arg2"
        ],
        [
          "DWORD",
          "arg3"
        ],
        [
          "DWORD",
          "arg4"
        ]
      ],
      "call": "std"
    },
    "WSCGetApplicationCategory": {
      "args": [
        [
          "DWORD",
          "arg0"
        ],
        [
          "DWORD",
          "arg1"
        ],
        [
          "DWORD",
          "arg2"
        ],
        [
          "DWORD",
          "arg3"
        ],
        [
          "DWORD",
          "arg4"
        ],
        [
          "DWORD",
          "arg5"
        ]
      ],
      "call": "std"
    },
    "WSCGetApplicationCategoryEx": {
      "args": [
        [
          "DWORD",
          "arg0"
        ],
        [
          "DWORD",
          "arg1"
        ],
        [
          "DWORD",
          "arg2"
        ],
        [
          "DWORD",
          "arg3"
        ],
        [
          "DWORD",
          "arg4"
        ],
        [
          "DWORD",
          "arg5"
        ],
        [
          "DWORD",
          "arg6"
        ]
      ],
      "call": "std"
    },
    "WSCGetProviderInfo": {
      "args": [
        [
          "DWORD",
          "arg0"
        ],
        [
          "DWORD",
          "arg1"
        ],
        [
          "DWORD",
          "arg2"
        ],
        [
          "DWORD",
          "arg3"
        ],
        [
          "DWORD",
          "arg4"
        ],
        [
          "DWORD",
          "arg5"
        ]
      ],
      "call": "std"
    },
    "WSCGetProviderPath": {
      "args": [
        [
          "DWORD",
          "arg0"
        ],
        [
          "DWORD",
          "arg1"
        ],
        [
          "DWORD",
          "arg2"
        ],
        [
          "DWORD",
          "arg3"
        ]
      ],
      "call": "std"
    },
    "WSCInstallNameSpace": {
      "args": [
        [
          "DWORD",
          "arg0"
        ],
        [
          "DWORD",
          "arg1"
        ],
        [
          "DWORD",
          "arg2"
        ],
        [
          "DWORD",
          "arg3"
        ],
        [
          "DWORD",
          "arg4"
        ]
      ],
      "call": "std"
    },
    "WSCInstallNameSpaceEx": {
      "args": [
        [
          "DWORD",
          "arg0"
        ],
        [
          "DWORD",
          "arg1"
        ],
        [
          "DWORD",
          "arg2"
        ],
        [
          "DWORD",
          "arg3"
        ],
        [
          "DWORD",
          "arg4"
        ],
        [
          "DWORD",
          "arg5"
        ]
      ],
      "call": "std"
    },
    "WSCInstallNameSpaceEx2": {
      "args": [],
      "call": "std"
    },
    "WSCInstallProvider": {
      "args": [
        [
          "DWORD",
          "arg0"
        ],
        [
          "DWORD",
          "arg1"
        ],
        [
          "DWORD",
          "arg2"
        ],
        [
          "DWORD",
          "arg3"
        ],
        [
          "DWORD",
          "arg4"
        ]
      ],
      "call": "std"
    },
    "WSCInstallProviderAndChains": {
      "args": [],
      "call": "std"
    },
    "WSCInstallProviderEx": {
      "args": [
        [
          "DWORD",
          "arg0"
        ],
        [
          "DWORD",
          "arg1"
        ],
        [
          "DWORD",
          "arg2"
        ],
        [
          "DWORD",
          "arg3"
        ],
        [
          "DWORD",
          "arg4"
        ],
        [
          "DWORD",
          "arg5"
        ],
        [
          "DWORD",
          "arg6"
        ]
      ],
      "call": "std"
    },
    "WSCSetApplicationCategory": {
      "args": [
        [
          "DWORD",
          "arg0"
        ],
        [
          "DWORD",
          "arg1"
        ],
        [
          "DWORD",
          "arg2"
        ],
        [
          "DWORD",
          "arg3"
        ],
        [
          "DWORD",
          "arg4"
        ],
        [
          "DWORD",
          "arg5"
        ],
        [
          "DWORD",
          "arg6"
        ]
      ],
      "call": "std"
    },
    "WSCSetApplicationCategoryEx": {
      "args": [
        [
          "DWORD",
          "arg0"
        ],
        [
          "DWORD",
          "arg1"
        ],
        [
          "DWORD",
          "arg2"
        ],
        [
          "DWORD",
          "arg3"
        ],
        [
          "DWORD",
          "arg4"
        ],
        [
          "DWORD",
          "arg5"
        ],
        [
          "DWORD",
          "arg6"
        ],
        [
          "DWORD",
          "arg7"
        ]
      ],
      "call": "std"
    },
    "WSCSetProviderInfo": {
      "args": [
        [
          "DWORD",
          "arg0"
        ],
        [
          "DWORD",
          "arg1"
        ],
        [
          "DWORD",
          "arg2"
        ],
        [
          "DWORD",
          "arg3"
        ],
        [
          "DWORD",
          "arg4"
        ],
        [
          "DWORD",
          "arg5"
        ]
      ],
      "call": "std"
    },
    "WSCUnInstallNameSpace": {
      "args": [
        [
          "DWORD",
          "arg0"
        ]
      ],
      "call": "std"
    },
    "WSCUnInstallNameSpaceEx2": {
      "args": [],
      "call": "std"
    },
    "WSCUpdateProvider": {
      "args": [
        [
          "DWORD",
          "arg0"
        ],
        [
          "DWORD",
          "arg1"
        ],
        [
          "DWORD",
          "arg2"
        ],
        [
          "DWORD",
          "arg3"
        ],
        [
          "DWORD",
          "arg4"
        ]
      ],
      "call": "std"
    },
    "WSCUpdateProviderEx": {
      "args": [],
      "call": "std"
    },
    "WSCWriteNameSpaceOrder": {
      "args": [
        [
          "DWORD",
          "arg0"
        ],
        [
          "DWORD",
          "arg1"
        ]
      ],
      "call": "std"
    },
    "WSCWriteProviderOrder": {
      "args": [
        [
          "DWORD",
          "arg0"
        ],
        [
          "DWORD",
          "arg1"
        ]
      ],
      "call": "std"
    },
    "WSCWriteProviderOrderEx": {
      "args": [
        [
          "DWORD",
          "arg0"
        ],
        [
          "DWORD",
          "arg1"
        ],
        [
          "DWORD",
          "arg2"
        ]
      ],
      "call": "std"
    },
    "WahCloseApcHelper": {
      "args": [
        [
          "DWORD",
          "arg0"
        ]
      ],
      "call": "std"
    },
    "WahCloseHandleHelper": {
      "args": [
        [
          "DWORD",
          "arg0"
        ]
      ],
      "call": "std"
    },
    "WahCloseNotificationHandleHelper": {
      "args": [
        [
          "DWORD",
          "arg0"
        ]
      ],
      "call": "std"
    },
    "WahCloseSocketHandle": {
      "args": [
        [
          "DWORD",
          "arg0"
        ],
        [
          "DWORD",
          "arg1"
        ]
      ],
      "call": "std"
    },
    "WahCloseThread": {
      "args": [
        [
          "DWORD",
          "arg0"
        ],
        [
          "DWORD",
          "arg1"
        ]
      ],
      "call": "std"
    },
    "WahCompleteRequest": {
      "args": [
        [
          "DWORD",
          "arg0"
        ],
        [
          "DWORD",
          "arg1"
        ],
        [
          "DWORD",
          "arg2"
        ],
        [
          "DWORD",
          "arg3"
        ],
        [
          "DWORD",
          "arg4"
        ]
      ],
      "call": "std"
    },
    "WahCreateHandleContextTable": {
      "args": [
        [
          "DWORD",
          "arg0"
        ]
      ],
      "call": "std"
    },
    "WahCreateNotificationHandle": {
      "args": [
        [
          "DWORD",
          "arg0"
        ],
        [
          "DWORD",
          "arg1"
        ]
      ],
      "call": "std"
    },
    "WahCreateSocketHandle": {
      "args": [
        [
          "DWORD",
          "arg0"
        ],
        [
          "DWORD",
          "arg1"
        ]
      ],
      "call": "std"
    },
    "WahDestroyHandleContextTable": {
      "args": [
        [
          "DWORD",
          "arg0"
        ]
      ],
      "call": "std"
    },
    "WahEnableNonIFSHandleSupport": {
      "args": [],
      "call": "std"
    },
    "WahEnumerateHandleContexts": {
      "args": [
        [
          "DWORD",
          "arg0"
        ],
        [
          "DWORD",
          "arg1"
        ],
        [
          "DWORD",
          "arg2"
        ]
      ],
      "call": "std"
    },
    "WahInsertHandleContext": {
      "args": [
        [
          "DWORD",
          "arg0"
        ],
        [
          "DWORD",
          "arg1"
        ]
      ],
      "call": "std"
    },
    "WahNotifyAllProcesses": {
      "args": [
        [
          "DWORD",
          "arg0"
        ]
      ],
      "call": "std"
    },
    "WahOpenApcHelper": {
      "args": [
        [
          "DWORD",
          "arg0"
        ]
      ],
      "call": "std"
    },
    "WahOpenCurrentThread": {
      "args": [
        [
          "DWORD",
          "arg0"
        ],
        [
          "DWORD",
          "arg1"
        ]
      ],
      "call": "std"
    },
    "WahOpenHandleHelper": {
      "args": [
        [
          "DWORD",
          "arg0"
        ]
      ],
      "call": "std"
    },
    "WahOpenNotificationHandleHelper": {
      "args": [
        [
          "DWORD",
          "arg0"
        ]
      ],
      "call": "std"
    },
    "WahQueueUserApc": {
      "args": [
        [
          "DWORD",
          "arg0"
        ],
        [
          "DWORD",
          "arg1"
        ],
        [
          "DWORD",
          "arg2"
        ],
        [
          "DWORD",
          "arg3"
        ]
      ],
      "call": "std"
    },
    "WahReferenceContextByHandle": {
      "args": [
        [
          "DWORD",
          "arg0"
        ],
        [
          "DWORD",
          "arg1"
        ]
      ],
      "call": "std"
    },
    "WahRemoveHandleContext": {
      "args": [
        [
          "DWORD",
          "arg0"
        ],
        [
          "DWORD",
          "arg1"
        ]
      ],
      "call": "std"
    },
    "WahWaitForNotification": {
      "args": [
        [
          "DWORD",
          "arg0"
        ],
        [
          "DWORD",
          "arg1"
        ],
        [
          "DWORD",
          "arg2"
        ],
        [
          "DWORD",
          "arg3"
        ]
      ],
      "call": "std"
    },
    "WahWriteLSPEvent": {
      "args": [
        [
          "DWORD",
          "arg0"
        ],
        [
          "DWORD",
          "arg1"
        ]
      ],
      "call": "std"
    },
    "__WSAFDIsSet": {
      "args": [
        [
          "DWORD",
          "arg0"
        ],
        [
          "DWORD",
          "arg1"
        ]
      ],
      "call": "std"
    },
    "accept": {
      "args": [
        [
          "SOCKET",
          "s"
        ],
        [
          "FAR*",
          "addr"
        ],
        [
          "FAR*",
          "addrlen"
        ]
      ],
      "call": "std"
    },
    "bind": {
      "args": [
        [
          "SOCKET",
          "s"
        ],
        [
          "FAR*",
          "name"
        ],
        [
          "int",
          "namelen"
        ]
      ],
      "call": "std"
    },
    "closesocket": {
      "args": [
        [
          "SOCKET",
          "s"
        ]
      ],
      "call": "std"
    },
    "connect": {
      "args": [
        [
          "SOCKET",
          "s"
        ],
        [
          "FAR*",
          "name"
        ],
        [
          "int",
          "namelen"
        ]
      ],
      "call": "std"
    },
    "freeaddrinfo": {
      "args": [
        [
          "PADDRINFOA",
          "pAddrInfo"
        ]
      ],
      "call": "std"
    },
    "getaddrinfo": {
      "args": [
        [
          "PCSTR",
          "pNodeName"
        ],
        [
          "PCSTR",
          "pServiceName"
        ],
        [
          "ADDRINFOA*",
          "pHints"
        ],
        [
          "PADDRINFOA*",
          "ppResult"
        ]
      ],
      "call": "std"
    },
    "gethostbyaddr": {
      "args": [
        [
          "FAR*",
          "addr"
        ],
        [
          "int",
          "len"
        ],
        [
          "int",
          "type"
        ]
      ],
      "call": "std"
    },
    "gethostbyname": {
      "args": [
        [
          "FAR*",
          "name"
        ]
      ],
      "call": "std"
    },
    "gethostname": {
      "args": [
        [
          "FAR*",
          "name"
        ],
        [
          "int",
          "namelen"
        ]
      ],
      "call": "std"
    },
    "getnameinfo": {
      "args": [
        [
          "SOCKADDR*",
          "pSockaddr"
        ],
        [
          "socklen_t",
          "SockaddrLength"
        ],
        [
          "PCHAR",
          "pNodeBuffer"
        ],
        [
          "DWORD",
          "NodeBufferSize"
        ],
        [
          "PCHAR",
          "pServiceBuffer"
        ],
        [
          "DWORD",
          "ServiceBufferSize"
        ],
        [
          "INT",
          "Flags"
        ]
      ],
      "call": "std"
    },
    "getpeername": {
      "args": [
        [
          "SOCKET",
          "s"
        ],
        [
          "FAR*",
          "name"
        ],
        [
          "FAR*",
          "namelen"
        ]
      ],
      "call": "std"
    },
    "getprotobyname": {
      "args": [
        [
          "FAR*",
          "name"
        ]
      ],
      "call": "std"
    },
    "getprotobynumber": {
      "args": [
        [
          "int",
          "number"
        ]
      ],
      "call": "std"
    },
    "getservbyname": {
      "args": [
        [
          "FAR*",
          "name"
        ],
        [
          "FAR*",
          "proto"
        ]
      ],
      "call": "std"
    },
    "getservbyport": {
      "args": [
        [
          "int",
          "port"
        ],
        [
          "FAR*",
          "proto"
        ]
      ],
      "call": "std"
    },
    "getsockname": {
      "args": [
        [
          "SOCKET",
          "s"
        ],
        [
          "FAR*",
          "name"
        ],
        [
          "FAR*",
          "namelen"
        ]
      ],
      "call": "std"
    },
    "getsockopt": {
      "args": [
        [
          "SOCKET",
          "s"
        ],
        [
          "int",
          "level"
        ],
        [
          "int",
          "optname"
        ],
        [
          "FAR*",
          "optval"
        ],
        [
          "FAR*",
          "optlen"
        ]
      ],
      "call": "std"
    },
    "htonl": {
      "args": [
        [
          "u_long",
          "hostlong"
        ]
      ],
      "call": "std"
    },
    "htons": {
      "args": [
        [
          "u_short",
          "hostshort"
        ]
      ],
      "call": "std"
    },
    "inet_addr": {
      "args": [
        [
          "FAR*",
          "cp"
        ]
      ],
      "call": "std"
    },
    "inet_ntoa": {
      "args": [
        [
          "in_addr",
          "in"
        ]
      ],
      "call": "std"
    },
    "inet_ntop": {
      "args": [
        [
          "INT",
          "Family"
        ],
        [
          "PVOID",
          "pAddr"
        ],
        [
          "PSTR",
          "pStringBuf"
        ],
        [
          "size_t",
          "StringBufSize"
        ]
      ],
      "call": "std"
    },
    "inet_pton": {
      "args": [
        [
          "INT",
          "Family"
        ],
        [
          "PCSTR",
          "pszAddrString"
        ],
        [
          "PVOID",
          "pAddrBuf"
        ]
      ],
      "call": "std"
    },
    "ioctlsocket": {
      "args": [
        [
          "SOCKET",
          "s"
        ],
        [
          "long",
          "cmd"
        ],
        [
          "FAR*",
          "argp"
        ]
      ],
      "call": "std"
    },
    "listen": {
      "args": [
        [
          "SOCKET",
          "s"
        ],
        [
          "int",
          "backlog"
        ]
      ],
      "call": "std"
    },
    "ntohl": {
      "args": [
        [
          "u_long",
          "netlong"
        ]
      ],
      "call": "std"
    },
    "ntohs": {
      "args": [
        [
          "u_short",
          "netshort"
        ]
      ],
      "call": "std"
    },
    "recv": {
      "args": [
        [
          "SOCKET",
          "s"
        ],
        [
          "FAR*",
          "buf"
        ],
        [
          "int",
          "len"
        ],
        [
          "int",
          "flags"
        ]
      ],
      "call": "std"
    },
    "recvfrom": {
      "args": [
        [
          "SOCKET",
          "s"
        ],
        [
          "FAR*",
          "buf"
        ],
        [
          "int",
          "len"
        ],
        [
          "int",
          "flags"
        ],
        [
          "FAR*",
          "from"
        ],
        [
          "FAR*",
          "fromlen"
        ]
      ],
      "call": "std"
    },
    "select": {
      "args": [
        [
          "int",
          "nfds"
        ],
        [
          "FAR*",
          "readfds"
        ],
        [
          "FAR*",
          "writefds"
        ],
        [
          "FAR*",
          "exceptfds"
        ],
        [
          "FAR*",
          "timeout"
        ]
      ],
      "call": "std"
    },
    "send": {
      "args": [
        [
          "SOCKET",
          "s"
        ],
        [
          "FAR*",
          "buf"
        ],
        [
          "int",
          "len"
        ],
        [
          "int",
          "flags"
        ]
      ],
      "call": "std"
    },
    "sendto": {
      "args": [
        [
          "SOCKET",
          "s"
        ],
        [
          "FAR*",
          "buf"
        ],
        [
          "int",
          "len"
        ],
        [
          "int",
          "flags"
        ],
        [
          "FAR*",
          "to"
        ],
        [
          "int",
          "tolen"
        ]
      ],
      "call": "std"
    },
    "setsockopt": {
      "args": [
        [
          "SOCKET",
          "s"
        ],
        [
          "int",
          "level"
        ],
        [
          "int",
          "optname"
        ],
        [
          "FAR*",
          "optval"
        ],
        [
          "int",
          "optlen"
        ]
      ],
      "call": "std"
    },
    "shutdown": {
      "args": [
        [
          "SOCKET",
          "s"
        ],
        [
          "int",
          "how"
        ]
      ],
      "call": "std"
    },
    "socket": {
      "args": [
        [
          "int",
          "af"
        ],
        [
          "int",
          "type"
        ],
        [
          "int",
          "protocol"
        ]
      ],
      "call": "std"
    }
  },
  "imagebase": 1333264384
}